rtl/dsp/sim/sim_build/dsp.vcd
$date
	Thu Aug  1 14:49:47 2019
$end
$version
	Icarus Verilog
$end
$timescale
	1ps
$end
$scope module dsp $end
$scope module ffe_inst $end
$var wire 9 ! \coefs[0] [8:0] $end
$upscope $end
$upscope $end
$scope module dsp $end
$scope module ffe_inst $end
$var wire 9 " \coefs[1] [8:0] $end
$upscope $end
$upscope $end
$scope module dsp $end
$scope module ffe_inst $end
$var wire 9 # \coefs[2] [8:0] $end
$upscope $end
$upscope $end
$scope module dsp $end
$scope module ffe_inst $end
$var wire 9 $ \coefs[3] [8:0] $end
$upscope $end
$upscope $end
$scope module dsp $end
$scope module ffe_inst $end
$var wire 9 % \coefs[4] [8:0] $end
$upscope $end
$upscope $end
$scope module dsp $end
$scope module ffe_inst $end
$var wire 9 & \coefs[5] [8:0] $end
$upscope $end
$upscope $end
$scope module dsp $end
$scope module ffe_inst $end
$var wire 9 ' \coefs[6] [8:0] $end
$upscope $end
$upscope $end
$scope module dsp $end
$scope module lms_inst $end
$var reg 27 ( \c_reg[0] [26:0] $end
$upscope $end
$upscope $end
$scope module dsp $end
$scope module lms_inst $end
$var reg 27 ) \c_reg[1] [26:0] $end
$upscope $end
$upscope $end
$scope module dsp $end
$scope module lms_inst $end
$var reg 27 * \c_reg[2] [26:0] $end
$upscope $end
$upscope $end
$scope module dsp $end
$scope module lms_inst $end
$var reg 27 + \c_reg[3] [26:0] $end
$upscope $end
$upscope $end
$scope module dsp $end
$scope module lms_inst $end
$var reg 27 , \c_reg[4] [26:0] $end
$upscope $end
$upscope $end
$scope module dsp $end
$scope module lms_inst $end
$var reg 27 - \c_reg[5] [26:0] $end
$upscope $end
$upscope $end
$scope module dsp $end
$scope module lms_inst $end
$var reg 27 . \c_reg[6] [26:0] $end
$upscope $end
$upscope $end
$scope module dsp $end
$scope module lms_inst $end
$var wire 29 / \c_next[0] [28:0] $end
$upscope $end
$upscope $end
$scope module dsp $end
$scope module lms_inst $end
$var wire 29 0 \c_next[1] [28:0] $end
$upscope $end
$upscope $end
$scope module dsp $end
$scope module lms_inst $end
$var wire 29 1 \c_next[2] [28:0] $end
$upscope $end
$upscope $end
$scope module dsp $end
$scope module lms_inst $end
$var wire 29 2 \c_next[3] [28:0] $end
$upscope $end
$upscope $end
$scope module dsp $end
$scope module lms_inst $end
$var wire 29 3 \c_next[4] [28:0] $end
$upscope $end
$upscope $end
$scope module dsp $end
$scope module lms_inst $end
$var wire 29 4 \c_next[5] [28:0] $end
$upscope $end
$upscope $end
$scope module dsp $end
$scope module lms_inst $end
$var wire 29 5 \c_next[6] [28:0] $end
$upscope $end
$upscope $end
$scope module dsp $end
$scope module lms_inst $end
$var wire 27 6 \correction_term[0] [26:0] $end
$upscope $end
$upscope $end
$scope module dsp $end
$scope module lms_inst $end
$var wire 27 7 \correction_term[1] [26:0] $end
$upscope $end
$upscope $end
$scope module dsp $end
$scope module lms_inst $end
$var wire 27 8 \correction_term[2] [26:0] $end
$upscope $end
$upscope $end
$scope module dsp $end
$scope module lms_inst $end
$var wire 27 9 \correction_term[3] [26:0] $end
$upscope $end
$upscope $end
$scope module dsp $end
$scope module lms_inst $end
$var wire 27 : \correction_term[4] [26:0] $end
$upscope $end
$upscope $end
$scope module dsp $end
$scope module lms_inst $end
$var wire 27 ; \correction_term[5] [26:0] $end
$upscope $end
$upscope $end
$scope module dsp $end
$scope module lms_inst $end
$var wire 27 < \correction_term[6] [26:0] $end
$upscope $end
$upscope $end
$scope module dsp $end
$var wire 1 = clockdsp $end
$var wire 11 > connect_ch_to_dsp [10:0] $end
$var wire 1 ? log_in_ram_run_from_micro $end
$var wire 15 @ log_read_addr_from_micro [14:0] $end
$var wire 4 A rf_enables_module [3:0] $end
$var wire 1 B soft_reset $end
$var wire 8 C step_mu [7:0] $end
$var wire 9 D slice [8:0] $end
$var wire 1 E log_out_full_from_ram $end
$var wire 32 F log_data_from_ram [31:0] $end
$var wire 9 G ffe_out [8:0] $end
$var wire 10 H error [9:0] $end
$var wire 63 I coefs [62:0] $end
$var reg 8 J step_mu_reg [7:0] $end
$var integer 32 K i [31:0] $end
$scope module bram_inst $end
$var wire 1 = clockdsp $end
$var wire 11 L log_in_1 [10:0] $end
$var wire 8 M log_in_3 [7:0] $end
$var wire 1 ? log_in_ram_run_from_micro $end
$var wire 3 N log_input_select [2:0] $end
$var wire 1 E log_out_full_from_ram $end
$var wire 15 O log_read_addr_from_micro [14:0] $end
$var wire 1 B soft_reset $end
$var wire 1 P write_mem $end
$var wire 63 Q log_in_4 [62:0] $end
$var wire 9 R log_in_2 [8:0] $end
$var wire 32 S log_data_from_ram [31:0] $end
$var wire 1 T last_addr $end
$var wire 15 U address_mem [14:0] $end
$var reg 32 V data_mem [31:0] $end
$var reg 27 W log_coefficients [26:0] $end
$var reg 11 X log_in_1_reg [10:0] $end
$var reg 9 Y log_in_2_reg [8:0] $end
$var reg 8 Z log_in_3_reg [7:0] $end
$var reg 63 [ log_in_4_reg [62:0] $end
$scope module address_count $end
$var wire 1 = clk $end
$var wire 15 \ q [14:0] $end
$var wire 1 B rst $end
$var wire 1 P run $end
$var wire 15 ] r_next [14:0] $end
$var wire 1 T max $end
$var reg 15 ^ r_reg [14:0] $end
$upscope $end
$scope module fsm $end
$var wire 1 = clk $end
$var wire 1 T last_addr $end
$var wire 1 B rst $end
$var wire 1 ? run $end
$var wire 1 P write $end
$var reg 1 P current_state $end
$var reg 1 _ next_state $end
$upscope $end
$scope module log_ram $end
$var wire 15 ` address_a [14:0] $end
$var wire 15 a address_b [14:0] $end
$var wire 1 = clk $end
$var wire 32 b din [31:0] $end
$var wire 32 c dout_a [31:0] $end
$var wire 32 d dout_b [31:0] $end
$var wire 1 P we $end
$var reg 32 e read_addr_a [31:0] $end
$var reg 32 f read_addr_b [31:0] $end
$upscope $end
$upscope $end
$scope module ffe_inst $end
$var wire 1 = i_clk $end
$var wire 11 g i_data [10:0] $end
$var wire 1 h i_en $end
$var wire 1 B i_rst $end
$var wire 63 i i_coefs [62:0] $end
$var wire 23 j dout_int [22:0] $end
$var reg 9 k o_data [8:0] $end
$var integer 32 l i [31:0] $end
$scope begin genblk1[0] $end
$upscope $end
$scope begin genblk1[1] $end
$upscope $end
$scope begin genblk1[2] $end
$upscope $end
$scope begin genblk1[3] $end
$upscope $end
$scope begin genblk1[4] $end
$upscope $end
$scope begin genblk1[5] $end
$upscope $end
$scope begin genblk1[6] $end
$upscope $end
$scope begin genblk2[0] $end
$upscope $end
$scope begin genblk2[1] $end
$upscope $end
$scope begin genblk2[2] $end
$upscope $end
$scope begin genblk2[3] $end
$upscope $end
$scope begin genblk2[4] $end
$upscope $end
$scope begin genblk2[5] $end
$upscope $end
$scope begin genblk2[6] $end
$upscope $end
$scope task truncate_and_saturate $end
$var reg 23 m full_prec [22:0] $end
$var reg 9 n red_prec [8:0] $end
$upscope $end
$upscope $end
$scope module lms_inst $end
$var wire 1 = i_clk $end
$var wire 11 o i_data [10:0] $end
$var wire 1 p i_en $end
$var wire 8 q i_error [7:0] $end
$var wire 8 r i_mu [7:0] $end
$var wire 1 B i_rst $end
$var wire 63 s o_coefs [62:0] $end
$var reg 16 t error_weightened [15:0] $end
$var integer 32 u i [31:0] $end
$scope begin genblk1[0] $end
$upscope $end
$scope begin genblk1[1] $end
$upscope $end
$scope begin genblk1[2] $end
$upscope $end
$scope begin genblk1[3] $end
$upscope $end
$scope begin genblk1[4] $end
$upscope $end
$scope begin genblk1[5] $end
$upscope $end
$scope begin genblk1[6] $end
$upscope $end
$scope begin genblk2[0] $end
$upscope $end
$scope begin genblk2[1] $end
$upscope $end
$scope begin genblk2[2] $end
$upscope $end
$scope begin genblk2[3] $end
$upscope $end
$scope begin genblk2[4] $end
$upscope $end
$scope begin genblk2[5] $end
$upscope $end
$scope begin genblk2[6] $end
$upscope $end
$scope begin genblk3[0] $end
$upscope $end
$scope begin genblk3[1] $end
$upscope $end
$scope begin genblk3[2] $end
$upscope $end
$scope begin genblk3[3] $end
$upscope $end
$scope begin genblk3[4] $end
$upscope $end
$scope begin genblk3[5] $end
$upscope $end
$scope begin genblk3[6] $end
$upscope $end
$scope task truncate_and_saturate $end
$upscope $end
$upscope $end
$upscope $end
$enddefinitions $end
#0
$dumpvars
b111 u
b0 t
b10000000000000000000000000000000000 s
b0 r
b10000001 q
0p
bx o
b11111111 n
bx m
b110 l
b11111111 k
bx j
b10000000000000000000000000000000000 i
0h
b0 g
b0 f
b0xxxxxxxxxxxxxxx e
bx d
bx c
b0 b
b0 a
b0 `
0_
b0 ^
b1 ]
b0 \
b0 [
b0 Z
b0 Y
b0 X
b0 W
b0 V
b0 U
0T
bx S
b11111111 R
b10000000000000000000000000000000000 Q
0P
b0 O
b0 N
b10000001 M
b0 L
b10 K
b0 J
b10000000000000000000000000000000000 I
b1110000001 H
b11111111 G
bx F
0E
b10000000 D
b0 C
1B
b0 A
b0 @
0?
b0 >
1=
b0 <
b0 ;
b0 :
b0 9
b0 8
b0 7
b0 6
b0 5
b0 4
b0 3
b1000000000000000000000 2
b0 1
b0 0
b0 /
b0 .
b0 -
b0 ,
b1000000000000000000000 +
b0 *
b0 )
b0 (
b0 '
b0 &
b0 %
b10000000 $
b0 #
b0 "
b0 !
$end
#500
0=
#1000
b0 e
b0 .
b0 -
b0 ,
b1000000000000000000000 +
b0 *
b0 )
b0 (
b0 j
b10 K
b111 u
b11 l
1=
#1500
0=
#2000
b0 .
b0 -
b0 ,
b1000000000000000000000 +
b0 *
b0 )
b0 (
b10000000 q
b10000000 M
b10000000 H
b0 G
b0 R
b0 k
b0 n
b110 l
b111 u
b10 K
b0 m
1=
#2500
0=
#3000
b0 .
b0 -
b0 ,
b1000000000000000000000 +
b0 *
b0 )
b0 (
b10 K
b111 u
b11 l
1=
#3500
0=
#4000
b0 .
b0 -
b0 ,
b1000000000000000000000 +
b0 *
b0 )
b0 (
b110 l
b111 u
b10 K
1=
#4500
0=
#5000
b0 .
b0 -
b0 ,
b1000000000000000000000 +
b0 *
b0 )
b0 (
b10 K
b111 u
b11 l
1=
#5500
0=
#6000
b0 .
b0 -
b0 ,
b1000000000000000000000 +
b0 *
b0 )
b0 (
b110 l
b111 u
b10 K
1=
#6500
0=
#7000
b0 .
b0 -
b0 ,
b1000000000000000000000 +
b0 *
b0 )
b0 (
b10 K
b111 u
b11 l
1=
#7500
0=
#8000
b0 .
b0 -
b0 ,
b1000000000000000000000 +
b0 *
b0 )
b0 (
b110 l
b111 u
b10 K
1=
#8500
0=
#9000
b0 .
b0 -
b0 ,
b1000000000000000000000 +
b0 *
b0 )
b0 (
b10 K
b111 u
b11 l
1=
#9500
0=
#10000
b0 .
b0 -
b0 ,
b1000000000000000000000 +
b0 *
b0 )
b0 (
b110 l
b111 u
b10 K
1=
#10500
0=
#11000
b0 .
b0 -
b0 ,
b1000000000000000000000 +
b0 *
b0 )
b0 (
b10 K
b111 u
b11 l
1=
#11500
0=
#12000
b0 .
b0 -
b0 ,
b1000000000000000000000 +
b0 *
b0 )
b0 (
b110 l
b111 u
b10 K
1=
#12500
0=
#13000
b0 .
b0 -
b0 ,
b1000000000000000000000 +
b0 *
b0 )
b0 (
b10 K
b111 u
b11 l
1=
#13500
0=
#14000
b0 .
b0 -
b0 ,
b1000000000000000000000 +
b0 *
b0 )
b0 (
b110 l
b111 u
b10 K
1=
#14500
0=
#15000
0B
b0 .
b0 -
b0 ,
b1000000000000000000000 +
b0 *
b0 )
b0 (
b10 K
b111 u
b11 l
1=
#15500
0=
#16000
b10000000000000000000000000000000000 [
b10000000 Z
b0 o
b11 l
b10 K
1=
#16500
0=
#17000
b10 K
b11 l
1=
#17500
0=
#18000
b11 l
b10 K
1=
#18500
0=
#19000
b10 K
b11 l
1=
#19500
0=
#20000
b11 l
b10 K
1=
#20500
0=
#21000
b10 K
b11 l
1=
#21500
0=
#22000
b11 l
b10 K
1=
#22500
0=
#23000
b10 K
b11 l
1=
#23500
0=
#24000
b11 l
b10 K
1=
#24500
0=
#25000
b10 K
b11 l
1=
#25500
0=
#26000
b11111111111111111111111110000001 V
b11111111111111111111111110000001 b
b11110000001 X
b10000 J
b10000 r
1h
1p
b11 l
b10 K
b10000 C
b1 A
b11110000001 >
b11110000001 L
b11110000001 g
1=
#26500
0=
#27000
b1111111 >
b1111111 L
b1111111 g
b0 .
b0 -
b0 ,
b1000000000000000000000 +
b0 *
b0 )
b0 (
b1111100000000000 t
b10 K
b111 u
b11 l
1=
#27500
0=
#28000
b11110000001 >
b11110000001 L
b11110000001 g
b1111111 V
b1111111 b
b0 .
b0 -
b0 ,
b1000000000000000000000 +
b0 *
b0 )
b0 (
b1111111 X
b11110000001 o
b110 l
b111 u
b10 K
1=
#28500
0=
#29000
b1111111 >
b1111111 L
b1111111 g
b11111111111111111111111110000001 V
b11111111111111111111111110000001 b
b1111111 o
b11110000001 X
b0 .
b0 -
b0 ,
b1000000000000000000000 +
b0 *
b0 )
b0 (
b111111100000000000 /
b111111100000000000 6
b10 K
b111 u
b11 l
1=
#29500
0=
#30000
b11110000001 >
b11110000001 L
b11110000001 g
b1111 !
b10000000000000000000000000000001111 I
b10000000000000000000000000000001111 Q
b10000000000000000000000000000001111 i
b10000000000000000000000000000001111 s
b1111111 V
b1111111 b
b11111111100000010000000 j
b111111100000000000 0
b111111100000000000 7
b111111111000000100000000000 6
b0 .
b0 -
b0 ,
b1000000000000000000000 +
b0 *
b0 )
b111111100000000000 (
b0 /
b1111111 X
b11110000001 o
b110 l
b111 u
b10 K
1=
#30500
0=
#31000
b1111 "
b0 !
b1111 W
b11111111111111111111111110000001 V
b11111111111111111111111110000001 b
b10000000000000000000001111000000000 I
b10000000000000000000001111000000000 Q
b10000000000000000000001111000000000 i
b10000000000000000000001111000000000 s
b1111111 o
b10000000000000000000000000000001111 [
b11110000001 X
b0 .
b0 -
b0 ,
b1000000000000000000000 +
b0 *
b111111100000000000 )
b0 (
b111111100000000000 1
b111111100000000000 8
b0 0
b111111111000000100000000000 7
b111111100000000000 /
b111111100000000000 6
b11100000001111 j
b110000000 D
b11111111 q
b11111111 M
b1111111111 H
b110000001 G
b110000001 R
b110000001 k
b110000001 n
b10 K
b111 u
b11 l
b11111111100000010000000 m
1=
#31500
0=
#32000
b1111 #
b0 "
b1111 !
b10000000000001111000000000000001111 I
b10000000000001111000000000000001111 Q
b10000000000001111000000000000001111 i
b10000000000001111000000000000001111 s
b1111000000000 W
b11111111011100100001111 j
b1000000000011111110000 2
b11111110000 9
b111111111111111100000010000 6
b11111110000 7
b111111111111111100000010000 8
b1111111111110000 t
b0 .
b0 -
b0 ,
b1000000000000000000000 +
b111111100000000000 *
b111111000000010000 1
b0 )
b11111110000 0
b111111100000000000 (
b111111000000010000 /
b10000000000000000000001111000000000 [
b11111111 Z
b110000001 Y
b11110000001 o
b10000000 D
b10000 q
b10000 M
b10000 H
b1110000 G
b1110000 R
b1110000 k
b1110000 n
b110 l
b111 u
b10 K
b11100000001111 m
1=
#32500
0=
#33000
b1111111 >
b1111111 L
b1111111 g
b1111000000000000001111 W
b10000000000001111000000000000001111 [
b10000 Z
b1110000 Y
b0 .
b0 -
b0 ,
b1000000000011111110000 +
b111111000000010000 *
b11111110000 )
b111111000000010000 (
b100000000 t
b11111111111111000000100000000 3
b111111111111000000100000000 :
b1000001000011011110000 2
b111111100000000 9
b110111000100010000 1
b111111111111000000100000000 8
b1000011011110000 0
b111111100000000 7
b110111000100010000 /
b111111111111000000100000000 6
b11000010011110 j
b110000000 D
b1110 q
b1110 M
b1110 H
b101110010 G
b101110010 R
b101110010 k
b101110010 n
b10 K
b111 u
b11 l
b11111111011100100001111 m
1=
#33500
0=
#34000
b11110000001 >
b11110000001 L
b11110000001 g
b111111110 %
b10000010 $
b1101 #
b10 "
b1101 !
b111111110010000010000001101000000010000001101 I
b111111110010000010000001101000000010000001101 Q
b111111110010000010000001101000000010000001101 i
b111111110010000010000001101000000010000001101 s
b1111111 V
b1111111 b
b11111111100000010000000 j
b11111111111111001000011100000 4
b111111111111001000011100000 ;
b111111111111001000011100000 6
b111111111111001000011100000 7
b110111100100000 8
b111111111111001000011100000 9
b110111100100000 :
b11100000 t
b0 .
b0 -
b1111111111000000100000000 ,
b1111111111111000000100000 3
b1000001000011011110000 +
b1000000001011111010000 2
b110111000100010000 *
b111110000000110000 1
b1000011011110000 )
b1011111010000 0
b110111000100010000 (
b110000000111110000 /
b1110 Z
b101110010 Y
b1111111 X
b10000000 D
b11111 q
b11111 M
b11111 H
b1100001 G
b1100001 R
b1100001 k
b1100001 n
b110 l
b111 u
b10 K
b11000010011110 m
1=
#34500
0=
#35000
b1111111 >
b1111111 L
b1111111 g
b111111110 &
b111111111 %
b10000000 $
b1111 #
b0 "
b1100 !
b1101000000010000001101 W
b11111111111111111111111110000001 V
b11111111111111111111111110000001 b
b111111110111111111010000000000001111000000000000001100 I
b111111110111111111010000000000001111000000000000001100 Q
b111111110111111111010000000000001111000000000000001100 i
b111111110111111111010000000000001111000000000000001100 s
b1111111 o
b111111110010000010000001101000000010000001101 [
b11111 Z
b1100001 Y
b11110000001 X
b0 .
b1111111111001000011100000 -
b11111111111111111111111 ,
b1000000001011111010000 +
b111110000000110000 *
b1011111010000 )
b110000000111110000 (
b100000101111100000 /
b111111111110000100111110000 6
b11111111111110010000111000000 0
b111111111110000100111110000 7
b111110000 t
b11111111111110000100111110000 5
b111111111110000100111110000 <
b10000000001000011011110000 4
b1111011000010000 ;
b11111110000100111101111 3
b111111111110000100111110000 :
b1000010000110111100000 2
b1111011000010000 9
b101110101000100000 1
b111111111110000100111110000 8
b11111111011010010011000 j
b110000000 D
b11111111 q
b11111111 M
b1111111111 H
b110000001 G
b110000001 R
b110000001 k
b110000001 n
b10 K
b111 u
b11 l
b11111111100000010000000 m
1=
#35500
0=
#36000
b11110000001 >
b11110000001 L
b11110000001 g
b111111100 '
b0 &
b111111100 %
b10000100 $
b1011 #
b111111100 "
b1000 !
b111111100000000000111111100010000100000001011111111100000001000 I
b111111100000000000111111100010000100000001011111111100000001000 Q
b111111100000000000111111100010000100000001011111111100000001000 i
b111111100000000000111111100010000100000001011111111100000001000 s
b1111000000000000001100 W
b1111111 V
b1111111 b
b11111111101000101011110 j
b111111111111111100000010000 6
b11111110000 7
b11111110000 8
b11111110000 9
b111111111111111100000010000 :
b11111110000 ;
b111111111111111100000010000 <
b1111111111110000 t
b1111111110000100111110000 .
b1111111110000001000000000 5
b100000000000000000000000 -
b100000000000011111110000 4
b11111110000100111101111 ,
b11111110000000111111111 3
b1000010000110111100000 +
b1000010001010111010000 2
b101110101000100000 *
b101111001000010000 1
b1111111110010000111000000 )
b1111111110010100110110000 0
b100000101111100000 (
b100000001111110000 /
b111111110111111111010000000000001111000000000000001100 [
b11111111 Z
b110000001 Y
b1111111 X
b11110000001 o
b10111 q
b10111 M
b10111 H
b101101001 G
b101101001 R
b101101001 k
b101101001 n
b110 l
b111 u
b10 K
b11111111011010010011000 m
1=
#36500
0=
#37000
b111111111 '
b111111111 "
b1011111111100000001000 W
b11111111111111111111111110000001 V
b11111111111111111111111110000001 b
b111111111000000000111111100010000100000001011111111111000001000 I
b111111111000000000111111100010000100000001011111111111000001000 Q
b111111111000000000111111100010000100000001011111111111000001000 i
b111111111000000000111111100010000100000001011111111111000001000 s
b1111111 o
b111111100000000000111111100010000100000001011111111100000001000 [
b10111 Z
b101101001 Y
b11110000001 X
b11111111111111111111111 .
b100000000000011111110000 -
b11111110000000111111111 ,
b1000010001010111010000 +
b101111001000010000 *
b11111111111111111111111 )
b100000001111110000 (
b100011101110000000 1
b111111111110100100101110000 8
b1000000101111101000000 2
b111111111110100100101110000 9
b101110000 t
b11111110100100101101111 5
b111111111110100100101110000 <
b100000001011111010000000 4
b1011011010010000 ;
b11111100100101101101111 3
b111111111110100100101110000 :
b100000001011011010001111 0
b1011011010010000 7
b10100110101100000 /
b111111111110100100101110000 6
b11100010001110 j
b11011110 q
b11011110 M
b1111011110 H
b110100010 G
b110100010 R
b110100010 k
b110100010 n
b10 K
b111 u
b11 l
b11111111101000101011110 m
1=
#37500
0=
#38000
b111111101 '
b10 &
b111111001 %
b10000001 $
b1000 #
b10 "
b101 !
b111111101000000010111111001010000001000001000000000010000000101 I
b111111101000000010111111001010000001000001000000000010000000101 Q
b111111101000000010111111001010000001000001000000000010000000101 i
b111111101000000010111111001010000001000001000000000010000000101 s
b1011111111111000001000 W
b11111111100000000000001 j
b111111111101111001000100000 6
b10000110111100000 7
b111111111101111001000100000 8
b10000110111100000 9
b10000110111100000 :
b10000110111100000 ;
b111111111101111001000100000 <
b1111110111100000 t
b11111110100100101101111 .
b11111100011101110001111 5
b100000001011111010000000 -
b100000011100110001100000 4
b11111100100101101101111 ,
b11111110101100101001111 3
b1000000101111101000000 +
b1000010110110100100000 2
b100011101110000000 *
b10010110110100000 1
b100000001011011010001111 )
b100000011100010001101111 0
b10100110101100000 (
b11111110000000 /
b111111111000000000111111100010000100000001011111111111000001000 [
b11011110 Z
b110100010 Y
b11110000001 o
b10000000 D
b1111 q
b1111 M
b1111 H
b1110001 G
b1110001 R
b1110001 k
b1110001 n
b110 l
b111 u
b10 K
b11100010001110 m
1=
#38500
0=
#39000
b111111000 '
b111 &
b111111101 %
b10000101 $
b100 #
b111 "
b0 !
b1000000000010000000101 W
b111111000000000111111111101010000101000000100000000111000000000 I
b111111000000000111111111101010000101000000100000000111000000000 Q
b111111000000000111111111101010000101000000100000000111000000000 i
b111111000000000111111111101010000101000000100000000111000000000 s
b111111101000000010111111001010000001000001000000000010000000101 [
b1111 Z
b1110001 Y
b11111100011101110001111 .
b100000011100110001100000 -
b11111110101100101001111 ,
b1000010110110100100000 +
b10010110110100000 *
b100000011100010001101111 )
b11111110000000 (
b11111101110001000111111 3
b111111111111000100011110000 :
b100000010101010101010000 4
b111111111111000100011110000 ;
b11110000 t
b11111011100010001111111 5
b111111111111000100011110000 <
b1000011110010000110000 2
b111011100010000 9
b1011011010010000 1
b111111111111000100011110000 8
b100000100011101101111111 0
b111011100010000 7
b11111111111111100100001110000 /
b111111111111000100011110000 6
b11100100001101 j
b110000000 D
b0 q
b0 M
b0 H
b110000000 G
b110000000 R
b110000000 k
b110000000 n
b10 K
b111 u
b11 l
b11111111100000000000001 m
1=
#39500
0=
#40000
b111110111 '
b101 &
b111111011 %
b10000111 $
b10 #
b1000 "
b111111111 !
b111110111000000101111111011010000111000000010000001000111111111 I
b111110111000000101111111011010000111000000010000001000111111111 Q
b111110111000000101111111011010000111000000010000001000111111111 i
b111110111000000101111111011010000111000000010000001000111111111 s
b100000000111000000000 W
b11111111011100000010001 j
b0 6
b0 7
b0 8
b0 9
b0 :
b0 ;
b0 <
b0 t
b11111011100010001111111 .
b11111011100010001111111 5
b100000010101010101010000 -
b100000010101010101010000 4
b11111101110001000111111 ,
b11111101110001000111111 3
b1000011110010000110000 +
b1000011110010000110000 2
b1011011010010000 *
b1011011010010000 1
b100000100011101101111111 )
b100000100011101101111111 0
b1111111111100100001110000 (
b1111111111100100001110000 /
b111111000000000111111111101010000101000000100000000111000000000 [
b0 Z
b110000000 Y
b10000000 D
b1110 q
b1110 M
b1110 H
b1110010 G
b1110010 R
b1110010 k
b1110010 n
b110 l
b111 u
b10 K
b11100100001101 m
1=
#40500
0=
#41000
b10000001000111111111 W
b111110111000000101111111011010000111000000010000001000111111111 [
b1110 Z
b1110010 Y
b11111011100010001111111 .
b100000010101010101010000 -
b11111101110001000111111 ,
b1000011110010000110000 +
b1011011010010000 *
b100000100011101101111111 )
b11111111111111111111111 (
b11111111001000011011111 /
b111111111111001000011100000 6
b100000011100110001011111 0
b111111111111001000011100000 7
b100011101110000 1
b111111111111001000011100000 8
b1000100101001101010000 2
b110111100100000 9
b11111100111001100011111 3
b111111111111001000011100000 :
b100000011100010001110000 4
b110111100100000 ;
b11111010101010101011111 5
b111111111111001000011100000 <
b11100000 t
b11111111011100100001111 j
b110000000 D
b10000 q
b10000 M
b10000 H
b101110000 G
b101110000 R
b101110000 k
b101110000 n
b10 K
b111 u
b11 l
b11111111011100000010001 m
1=
#41500
0=
#42000
b111110101 '
b111 &
b111111001 %
b10001001 $
b1 #
b111 "
b111111110 !
b111110101000000111111111001010001001000000001000000111111111110 I
b111110101000000111111111001010001001000000001000000111111111110 Q
b111110101000000111111111001010001001000000001000000111111111110 i
b111110101000000111111111001010001001000000001000000111111111110 s
b11111111011111000000101 j
b111111111111000000100000000 6
b111111111111000000100000000 7
b111111111111000000100000000 8
b111111111111000000100000000 9
b111111100000000 :
b111111111111000000100000000 ;
b111111100000000 <
b100000000 t
b11111010101010101011111 .
b11111011101010001011111 5
b100000011100010001110000 -
b100000010100010101110000 4
b11111100111001100011111 ,
b11111101111001000011111 3
b1000100101001101010000 +
b1000011101010001010000 2
b100011101110000 *
b11111111111111100100001110000 1
b100000011100110001011111 )
b100000010100110101011111 0
b11111111001000011011111 (
b11111110001000111011111 /
b10000 Z
b101110000 Y
b1110 q
b1110 M
b1110 H
b101110010 G
b101110010 R
b101110010 k
b101110010 n
b110 l
b111 u
b10 K
b11111111011100100001111 m
1=
#42500
0=
#43000
b1111111 >
b1111111 L
b1111111 g
b111110111 '
b101 &
b111111011 %
b10000111 $
b111111111 #
b101 "
b111111100 !
b1000000111111111110 W
b111110111000000101111111011010000111111111111000000101111111100 I
b111110111000000101111111011010000111111111111000000101111111100 Q
b111110111000000101111111011010000111111111111000000101111111100 i
b111110111000000101111111011010000111111111111000000101111111100 s
b111110101000000111111111001010001001000000001000000111111111110 [
b1110 Z
b101110010 Y
b11111011101010001011111 .
b100000010100010101110000 -
b11111101111001000011111 ,
b1000011101010001010000 +
b1111111111100100001110000 *
b100000010100110101011111 )
b11111110001000111011111 (
b11111101010001010111111 /
b111111111111001000011100000 6
b100000001101111000111111 0
b111111111111001000011100000 7
b1111111110101100101010000 1
b111111111111001000011100000 8
b1000010110010100110000 2
b111111111111001000011100000 9
b11100000 t
b11111010110010100111111 5
b111111111111001000011100000 <
b100000011011010010010000 4
b110111100100000 ;
b11111101000001011111111 3
b111111111111001000011100000 :
b11111111011110110000110 j
b100 q
b100 M
b100 H
b101111100 G
b101111100 R
b101111100 k
b101111100 n
b10 K
b111 u
b11 l
b11111111011111000000101 m
1=
#43500
0=
#44000
b111110101 '
b110 &
b111111010 %
b10000101 $
b11 "
b111111010 !
b111110101000000110111111010010000101111111111000000011111111010 I
b111110101000000110111111010010000101111111111000000011111111010 Q
b111110101000000110111111010010000101111111111000000011111111010 i
b111110101000000110111111010010000101111111111000000011111111010 s
b111111111000000101111111100 W
b1111111 V
b1111111 b
b11111111011111010000100 j
b111111111111110000001000000 6
b111111111111110000001000000 7
b111111111111110000001000000 8
b111111111111110000001000000 9
b111111111111110000001000000 :
b111111111111110000001000000 ;
b1111111000000 <
b1000000 t
b11111010110010100111111 .
b11111011000010011111111 5
b100000011011010010010000 -
b100000011001010011010000 4
b11111101000001011111111 ,
b11111100110001100111111 3
b1000010110010100110000 +
b1000010100010101110000 2
b11111111111111111111111 *
b11111111110000000111111 1
b100000001101111000111111 )
b100000001011111001111111 0
b11111101010001010111111 (
b11111101000001011111111 /
b111110111000000101111111011010000111111111111000000101111111100 [
b100 Z
b101111100 Y
b1111111 X
b101 q
b101 M
b101 H
b101111011 G
b101111011 R
b101111011 k
b101111011 n
b110 l
b111 u
b10 K
b11111111011110110000110 m
1=
#44500
0=
#45000
b11110000001 >
b11110000001 L
b11110000001 g
b111110110 '
b111111001 %
b10 "
b111111111000000011111111010 W
b111110110000000110111111001010000101111111111000000010111111010 I
b111110110000000110111111001010000101111111111000000010111111010 Q
b111110110000000110111111001010000101111111111000000010111111010 i
b111110110000000110111111001010000101111111111000000010111111010 s
b1111111 o
b111110101000000110111111010010000101111111111000000011111111010 [
b101 Z
b101111011 Y
b11111011000010011111111 .
b100000011001010011010000 -
b11111100110001100111111 ,
b1000010100010101110000 +
b11111111110000000111111 *
b100000001011111001111111 )
b11111101000001011111111 (
b11111100101101101001111 /
b111111111111101100001010000 6
b100000001001011011001111 0
b111111111111101100001010000 7
b11111111011100010001111 1
b111111111111101100001010000 8
b1000010001110111000000 2
b111111111111101100001010000 9
b11111100011101110001111 3
b111111111111101100001010000 :
b100000010110110100100000 4
b111111111111101100001010000 ;
b1010000 t
b11111010101110101001111 5
b111111111111101100001010000 <
b11111111100000111111101 j
b11 q
b11 M
b11 H
b101111101 G
b101111101 R
b101111101 k
b101111101 n
b10 K
b111 u
b11 l
b11111111011111010000100 m
1=
#45500
0=
