rtl/dsp/sim/sim_build/dsp.vcd
$date
	Thu Aug  1 15:30:16 2019
$end
$version
	Icarus Verilog
$end
$timescale
	1ps
$end
$scope module dsp $end
$scope module ffe_inst $end
$var wire 9 ! \coefs[0] [8:0] $end
$upscope $end
$upscope $end
$scope module dsp $end
$scope module ffe_inst $end
$var wire 9 " \coefs[1] [8:0] $end
$upscope $end
$upscope $end
$scope module dsp $end
$scope module ffe_inst $end
$var wire 9 # \coefs[2] [8:0] $end
$upscope $end
$upscope $end
$scope module dsp $end
$scope module ffe_inst $end
$var wire 9 $ \coefs[3] [8:0] $end
$upscope $end
$upscope $end
$scope module dsp $end
$scope module ffe_inst $end
$var wire 9 % \coefs[4] [8:0] $end
$upscope $end
$upscope $end
$scope module dsp $end
$scope module ffe_inst $end
$var wire 9 & \coefs[5] [8:0] $end
$upscope $end
$upscope $end
$scope module dsp $end
$scope module ffe_inst $end
$var wire 9 ' \coefs[6] [8:0] $end
$upscope $end
$upscope $end
$scope module dsp $end
$scope module lms_inst $end
$var reg 27 ( \c_reg[0] [26:0] $end
$upscope $end
$upscope $end
$scope module dsp $end
$scope module lms_inst $end
$var reg 27 ) \c_reg[1] [26:0] $end
$upscope $end
$upscope $end
$scope module dsp $end
$scope module lms_inst $end
$var reg 27 * \c_reg[2] [26:0] $end
$upscope $end
$upscope $end
$scope module dsp $end
$scope module lms_inst $end
$var reg 27 + \c_reg[3] [26:0] $end
$upscope $end
$upscope $end
$scope module dsp $end
$scope module lms_inst $end
$var reg 27 , \c_reg[4] [26:0] $end
$upscope $end
$upscope $end
$scope module dsp $end
$scope module lms_inst $end
$var reg 27 - \c_reg[5] [26:0] $end
$upscope $end
$upscope $end
$scope module dsp $end
$scope module lms_inst $end
$var reg 27 . \c_reg[6] [26:0] $end
$upscope $end
$upscope $end
$scope module dsp $end
$scope module lms_inst $end
$var wire 29 / \c_next[0] [28:0] $end
$upscope $end
$upscope $end
$scope module dsp $end
$scope module lms_inst $end
$var wire 29 0 \c_next[1] [28:0] $end
$upscope $end
$upscope $end
$scope module dsp $end
$scope module lms_inst $end
$var wire 29 1 \c_next[2] [28:0] $end
$upscope $end
$upscope $end
$scope module dsp $end
$scope module lms_inst $end
$var wire 29 2 \c_next[3] [28:0] $end
$upscope $end
$upscope $end
$scope module dsp $end
$scope module lms_inst $end
$var wire 29 3 \c_next[4] [28:0] $end
$upscope $end
$upscope $end
$scope module dsp $end
$scope module lms_inst $end
$var wire 29 4 \c_next[5] [28:0] $end
$upscope $end
$upscope $end
$scope module dsp $end
$scope module lms_inst $end
$var wire 29 5 \c_next[6] [28:0] $end
$upscope $end
$upscope $end
$scope module dsp $end
$scope module lms_inst $end
$var wire 27 6 \correction_term[0] [26:0] $end
$upscope $end
$upscope $end
$scope module dsp $end
$scope module lms_inst $end
$var wire 27 7 \correction_term[1] [26:0] $end
$upscope $end
$upscope $end
$scope module dsp $end
$scope module lms_inst $end
$var wire 27 8 \correction_term[2] [26:0] $end
$upscope $end
$upscope $end
$scope module dsp $end
$scope module lms_inst $end
$var wire 27 9 \correction_term[3] [26:0] $end
$upscope $end
$upscope $end
$scope module dsp $end
$scope module lms_inst $end
$var wire 27 : \correction_term[4] [26:0] $end
$upscope $end
$upscope $end
$scope module dsp $end
$scope module lms_inst $end
$var wire 27 ; \correction_term[5] [26:0] $end
$upscope $end
$upscope $end
$scope module dsp $end
$scope module lms_inst $end
$var wire 27 < \correction_term[6] [26:0] $end
$upscope $end
$upscope $end
$scope module dsp $end
$var wire 1 = clockdsp $end
$var wire 11 > connect_ch_to_dsp [10:0] $end
$var wire 1 ? log_in_ram_run_from_micro $end
$var wire 15 @ log_read_addr_from_micro [14:0] $end
$var wire 4 A rf_enables_module [3:0] $end
$var wire 1 B soft_reset $end
$var wire 8 C step_mu [7:0] $end
$var wire 9 D slice [8:0] $end
$var wire 1 E log_out_full_from_ram $end
$var wire 32 F log_data_from_ram [31:0] $end
$var wire 9 G ffe_out [8:0] $end
$var wire 10 H error [9:0] $end
$var wire 63 I coefs [62:0] $end
$var reg 8 J step_mu_reg [7:0] $end
$var integer 32 K i [31:0] $end
$scope module bram_inst $end
$var wire 1 = clockdsp $end
$var wire 11 L log_in_1 [10:0] $end
$var wire 8 M log_in_3 [7:0] $end
$var wire 1 ? log_in_ram_run_from_micro $end
$var wire 3 N log_input_select [2:0] $end
$var wire 1 E log_out_full_from_ram $end
$var wire 15 O log_read_addr_from_micro [14:0] $end
$var wire 1 B soft_reset $end
$var wire 1 P write_mem $end
$var wire 63 Q log_in_4 [62:0] $end
$var wire 9 R log_in_2 [8:0] $end
$var wire 32 S log_data_from_ram [31:0] $end
$var wire 1 T last_addr $end
$var wire 15 U address_mem [14:0] $end
$var reg 32 V data_mem [31:0] $end
$var reg 27 W log_coefficients [26:0] $end
$var reg 11 X log_in_1_reg [10:0] $end
$var reg 9 Y log_in_2_reg [8:0] $end
$var reg 8 Z log_in_3_reg [7:0] $end
$var reg 63 [ log_in_4_reg [62:0] $end
$scope module address_count $end
$var wire 1 = clk $end
$var wire 15 \ q [14:0] $end
$var wire 1 B rst $end
$var wire 1 P run $end
$var wire 15 ] r_next [14:0] $end
$var wire 1 T max $end
$var reg 15 ^ r_reg [14:0] $end
$upscope $end
$scope module fsm $end
$var wire 1 = clk $end
$var wire 1 T last_addr $end
$var wire 1 B rst $end
$var wire 1 ? run $end
$var wire 1 P write $end
$var reg 1 P current_state $end
$var reg 1 _ next_state $end
$upscope $end
$scope module log_ram $end
$var wire 15 ` address_a [14:0] $end
$var wire 15 a address_b [14:0] $end
$var wire 1 = clk $end
$var wire 32 b din [31:0] $end
$var wire 32 c dout_a [31:0] $end
$var wire 32 d dout_b [31:0] $end
$var wire 1 P we $end
$var reg 32 e read_addr_a [31:0] $end
$var reg 32 f read_addr_b [31:0] $end
$upscope $end
$upscope $end
$scope module ffe_inst $end
$var wire 1 = i_clk $end
$var wire 11 g i_data [10:0] $end
$var wire 1 h i_en $end
$var wire 1 B i_rst $end
$var wire 63 i i_coefs [62:0] $end
$var wire 23 j dout_int [22:0] $end
$var reg 9 k o_data [8:0] $end
$var integer 32 l i [31:0] $end
$scope begin genblk1[0] $end
$upscope $end
$scope begin genblk1[1] $end
$upscope $end
$scope begin genblk1[2] $end
$upscope $end
$scope begin genblk1[3] $end
$upscope $end
$scope begin genblk1[4] $end
$upscope $end
$scope begin genblk1[5] $end
$upscope $end
$scope begin genblk1[6] $end
$upscope $end
$scope begin genblk2[0] $end
$upscope $end
$scope begin genblk2[1] $end
$upscope $end
$scope begin genblk2[2] $end
$upscope $end
$scope begin genblk2[3] $end
$upscope $end
$scope begin genblk2[4] $end
$upscope $end
$scope begin genblk2[5] $end
$upscope $end
$scope begin genblk2[6] $end
$upscope $end
$scope task truncate_and_saturate $end
$var reg 23 m full_prec [22:0] $end
$var reg 9 n red_prec [8:0] $end
$upscope $end
$upscope $end
$scope module lms_inst $end
$var wire 1 = i_clk $end
$var wire 11 o i_data [10:0] $end
$var wire 1 p i_en $end
$var wire 8 q i_error [7:0] $end
$var wire 8 r i_mu [7:0] $end
$var wire 1 B i_rst $end
$var wire 63 s o_coefs [62:0] $end
$var reg 16 t error_weightened [15:0] $end
$var integer 32 u i [31:0] $end
$scope begin genblk1[0] $end
$upscope $end
$scope begin genblk1[1] $end
$upscope $end
$scope begin genblk1[2] $end
$upscope $end
$scope begin genblk1[3] $end
$upscope $end
$scope begin genblk1[4] $end
$upscope $end
$scope begin genblk1[5] $end
$upscope $end
$scope begin genblk1[6] $end
$upscope $end
$scope begin genblk2[0] $end
$upscope $end
$scope begin genblk2[1] $end
$upscope $end
$scope begin genblk2[2] $end
$upscope $end
$scope begin genblk2[3] $end
$upscope $end
$scope begin genblk2[4] $end
$upscope $end
$scope begin genblk2[5] $end
$upscope $end
$scope begin genblk2[6] $end
$upscope $end
$scope begin genblk3[0] $end
$upscope $end
$scope begin genblk3[1] $end
$upscope $end
$scope begin genblk3[2] $end
$upscope $end
$scope begin genblk3[3] $end
$upscope $end
$scope begin genblk3[4] $end
$upscope $end
$scope begin genblk3[5] $end
$upscope $end
$scope begin genblk3[6] $end
$upscope $end
$scope task truncate_and_saturate $end
$upscope $end
$upscope $end
$upscope $end
$enddefinitions $end
#0
$dumpvars
b111 u
b0 t
b10000000000000000000000000000000000 s
b0 r
b10000001 q
0p
bx o
b11111111 n
bx m
b110 l
b11111111 k
bx j
b10000000000000000000000000000000000 i
0h
b0 g
b0 f
b0xxxxxxxxxxxxxxx e
bx d
bx c
b0 b
b0 a
b0 `
0_
b0 ^
b1 ]
b0 \
b0 [
b0 Z
b0 Y
b0 X
b0 W
b0 V
b0 U
0T
bx S
b11111111 R
b10000000000000000000000000000000000 Q
0P
b0 O
b0 N
b10000001 M
b0 L
b10 K
b0 J
b10000000000000000000000000000000000 I
b1110000001 H
b11111111 G
bx F
0E
b10000000 D
b0 C
1B
b0 A
b0 @
0?
b0 >
1=
b0 <
b0 ;
b0 :
b0 9
b0 8
b0 7
b0 6
b0 5
b0 4
b0 3
b1000000000000000000000 2
b0 1
b0 0
b0 /
b0 .
b0 -
b0 ,
b1000000000000000000000 +
b0 *
b0 )
b0 (
b0 '
b0 &
b0 %
b10000000 $
b0 #
b0 "
b0 !
$end
#500
0=
#1000
b0 e
b0 .
b0 -
b0 ,
b1000000000000000000000 +
b0 *
b0 )
b0 (
b0 j
b10 K
b111 u
b11 l
1=
#1500
0=
#2000
b0 .
b0 -
b0 ,
b1000000000000000000000 +
b0 *
b0 )
b0 (
b10000000 q
b10000000 M
b10000000 H
b0 G
b0 R
b0 k
b0 n
b110 l
b111 u
b10 K
b0 m
1=
#2500
0=
#3000
b0 .
b0 -
b0 ,
b1000000000000000000000 +
b0 *
b0 )
b0 (
b10 K
b111 u
b11 l
1=
#3500
0=
#4000
b0 .
b0 -
b0 ,
b1000000000000000000000 +
b0 *
b0 )
b0 (
b110 l
b111 u
b10 K
1=
#4500
0=
#5000
b0 .
b0 -
b0 ,
b1000000000000000000000 +
b0 *
b0 )
b0 (
b10 K
b111 u
b11 l
1=
#5500
0=
#6000
b0 .
b0 -
b0 ,
b1000000000000000000000 +
b0 *
b0 )
b0 (
b110 l
b111 u
b10 K
1=
#6500
0=
#7000
b0 .
b0 -
b0 ,
b1000000000000000000000 +
b0 *
b0 )
b0 (
b10 K
b111 u
b11 l
1=
#7500
0=
#8000
b0 .
b0 -
b0 ,
b1000000000000000000000 +
b0 *
b0 )
b0 (
b110 l
b111 u
b10 K
1=
#8500
0=
#9000
b0 .
b0 -
b0 ,
b1000000000000000000000 +
b0 *
b0 )
b0 (
b10 K
b111 u
b11 l
1=
#9500
0=
#10000
b0 .
b0 -
b0 ,
b1000000000000000000000 +
b0 *
b0 )
b0 (
b110 l
b111 u
b10 K
1=
#10500
0=
#11000
b0 .
b0 -
b0 ,
b1000000000000000000000 +
b0 *
b0 )
b0 (
b10 K
b111 u
b11 l
1=
#11500
0=
#12000
b0 .
b0 -
b0 ,
b1000000000000000000000 +
b0 *
b0 )
b0 (
b110 l
b111 u
b10 K
1=
#12500
0=
#13000
b0 .
b0 -
b0 ,
b1000000000000000000000 +
b0 *
b0 )
b0 (
b10 K
b111 u
b11 l
1=
#13500
0=
#14000
b0 .
b0 -
b0 ,
b1000000000000000000000 +
b0 *
b0 )
b0 (
b110 l
b111 u
b10 K
1=
#14500
0=
#15000
0B
b0 .
b0 -
b0 ,
b1000000000000000000000 +
b0 *
b0 )
b0 (
b10 K
b111 u
b11 l
1=
#15500
0=
#16000
b10000000000000000000000000000000000 [
b10000000 Z
b0 o
b11 l
b10 K
1=
#16500
0=
#17000
b10 K
b11 l
1=
#17500
0=
#18000
b11 l
b10 K
1=
#18500
0=
#19000
b10 K
b11 l
1=
#19500
0=
#20000
b11 l
b10 K
1=
#20500
0=
#21000
b10 K
b11 l
1=
#21500
0=
#22000
b11 l
b10 K
1=
#22500
0=
#23000
b10 K
b11 l
1=
#23500
0=
#24000
b11 l
b10 K
1=
#24500
0=
#25000
b10 K
b11 l
1=
#25500
0=
#26000
b1111111 V
b1111111 b
b1111111 X
b1 J
b1 r
1h
1p
b11 l
b10 K
b1 C
b1 A
b1111111 >
b1111111 L
b1111111 g
1=
#26500
0=
#27000
b11110000001 >
b11110000001 L
b11110000001 g
b0 .
b0 -
b0 ,
b1000000000000000000000 +
b0 *
b0 )
b0 (
b1111111110000000 t
b10 K
b111 u
b11 l
1=
#27500
0=
#28000
b1111111 >
b1111111 L
b1111111 g
b11111111111111111111111110000001 V
b11111111111111111111111110000001 b
b0 .
b0 -
b0 ,
b1000000000000000000000 +
b0 *
b0 )
b0 (
b11110000001 X
b1111111 o
b110 l
b111 u
b10 K
1=
#28500
0=
#29000
b1111111 V
b1111111 b
b11110000001 o
b1111111 X
b0 .
b0 -
b0 ,
b1000000000000000000000 +
b0 *
b0 )
b0 (
b11111111111111100000010000000 /
b111111111111100000010000000 6
b10 K
b111 u
b11 l
1=
#29500
0=
#30000
b11110000001 >
b11110000001 L
b11110000001 g
b111111111 !
b10000000000000000000000000111111111 I
b10000000000000000000000000111111111 Q
b10000000000000000000000000111111111 i
b10000000000000000000000000111111111 s
b11111110000000 j
b11111111111111100000010000000 0
b111111111111100000010000000 7
b11111110000000 6
b0 .
b0 -
b0 ,
b1000000000000000000000 +
b0 *
b0 )
b1111111111100000010000000 (
b10000000000000000000000000 /
b1111111 o
b110 l
b111 u
b10 K
1=
#30500
0=
#31000
b1111111 >
b1111111 L
b1111111 g
b111111111 "
b0 !
b111111111 W
b11111111111111111111111110000001 V
b11111111111111111111111110000001 b
b10000000000000000111111111000000000 I
b10000000000000000111111111000000000 Q
b10000000000000000111111111000000000 i
b10000000000000000111111111000000000 s
b10000000000000000000000000111111111 [
b11110000001 X
b0 .
b0 -
b0 ,
b1000000000000000000000 +
b0 *
b1111111111100000010000000 )
b100000000000000000000000 (
b11111111111111100000010000000 1
b111111111111100000010000000 8
b10000000000000000000000000 0
b11111110000000 7
b11111111100000010000000 /
b111111111111100000010000000 6
b11111111100000011111111 j
b1 q
b1 M
b1 H
b1111111 G
b1111111 R
b1111111 k
b1111111 n
b10 K
b111 u
b11 l
b11111110000000 m
1=
#31500
0=
#32000
b111111111 #
b0 "
b111111111 !
b10000000111111111000000000111111111 I
b10000000111111111000000000111111111 Q
b10000000111111111000000000111111111 i
b10000000111111111000000000111111111 s
b111111111000000000 W
b1111111 V
b1111111 b
b11111111111111 j
b1000000000000001111111 2
b1111111 9
b1111111 6
b1111111 7
b111111111111111111110000001 8
b1 t
b0 .
b0 -
b0 ,
b1000000000000000000000 +
b1111111111100000010000000 *
b1111111111100000000000001 1
b100000000000000000000000 )
b100000000000000001111111 0
b11111111100000010000000 (
b11111111100000011111111 /
b10000000000000000111111111000000000 [
b1 Z
b1111111 Y
b1111111 X
b11110000001 o
b110000000 D
b11111111 q
b11111111 M
b1111111111 H
b110000001 G
b110000001 R
b110000001 k
b110000001 n
b110 l
b111 u
b10 K
b11111111100000011111111 m
1=
#32500
0=
#33000
b11110000001 >
b11110000001 L
b11110000001 g
b111111111000000000111111111 W
b1111111 o
b10000000111111111000000000111111111 [
b11111111 Z
b110000001 Y
b0 .
b0 -
b0 ,
b1000000000000001111111 +
b11111111111111111111111 *
b100000000000000001111111 )
b11111111100000011111111 (
b100000000000000000000000 0
b111111111111111111110000001 7
b1111111111111111 t
b11111111111111111111110000001 3
b111111111111111111110000001 :
b1000000000000011111110 2
b1111111 9
b11111111111111110000000 1
b111111111111111111110000001 8
b11111111100000101111110 /
b1111111 6
b11111110000000 j
b10000000 D
b1 q
b1 M
b1 H
b1111111 G
b1111111 R
b1111111 k
b1111111 n
b10 K
b111 u
b11 l
b11111111111111 m
1=
#33500
0=
#34000
b1111111 >
b1111111 L
b1111111 g
b111111111 %
b111111111010000000111111111000000000111111111 I
b111111111010000000111111111000000000111111111 Q
b111111111010000000111111111000000000111111111 i
b111111111010000000111111111000000000111111111 s
b11111111111111111111111110000001 V
b11111111111111111111111110000001 b
b11111111100000010000000 j
b1111111 4
b1111111 ;
b1111111 6
b111111111111111111110000001 7
b1111111 8
b1111111 9
b111111111111111111110000001 :
b1 t
b0 .
b0 -
b1111111111111111110000001 ,
b1111111111111111100000010 3
b1000000000000011111110 +
b1000000000000101111101 2
b11111111111111110000000 *
b11111111111111111111111 1
b100000000000000000000000 )
b11111111111111110000001 0
b11111111100000101111110 (
b11111111100000111111101 /
b1 Z
b1111111 Y
b11110000001 X
b110 l
b111 u
b10 K
b11111110000000 m
1=
#34500
0=
#35000
b111111111 "
b1111111 V
b1111111 b
b111111111010000000111111111111111111111111111 I
b111111111010000000111111111111111111111111111 Q
b111111111010000000111111111111111111111111111 i
b111111111010000000111111111111111111111111111 s
b11110000001 o
b111111111010000000111111111000000000111111111 [
b1111111 X
b0 .
b1111111 -
b11111111111111111111111 ,
b1000000000000101111101 +
b1000000000000111111100 2
b11111111111111111111111 *
b11111111111111110000001 )
b11111111100000111111101 (
b11111111100001001111100 /
b1111111 5
b1111111 <
b0 4
b111111111111111111110000001 ;
b100000000000000001111110 3
b1111111 :
b11111111111111110000000 1
b111111111111111111110000001 8
b100000000000000000000000 0
b1111111 7
b11111100000001 j
b110000000 D
b11111111 q
b11111111 M
b1111111111 H
b110000001 G
b110000001 R
b110000001 k
b110000001 n
b10 K
b111 u
b11 l
b11111111100000010000000 m
1=
#35500
0=
#36000
b11110000001 >
b11110000001 L
b11110000001 g
b0 %
b0 "
b10000000111111111000000000111111111 I
b10000000111111111000000000111111111 Q
b10000000111111111000000000111111111 i
b10000000111111111000000000111111111 s
b111111111111111111111111111 W
b11111010000010 j
b1111111 6
b111111111111111111110000001 7
b111111111111111111110000001 8
b1111111 9
b111111111111111111110000001 :
b111111111111111111110000001 ;
b1111111 <
b1111111111111111 t
b1111111 .
b11111110 5
b0 -
b11111111111111111111110000001 4
b100000000000000001111110 ,
b11111111111111111111111 3
b1000000000000111111100 +
b1000000000001001111011 2
b11111111111111110000000 *
b11111111111111100000001 1
b100000000000000000000000 )
b11111111111111110000001 0
b11111111100001001111100 (
b11111111100001011111011 /
b111111111010000000111111111111111111111111111 [
b11111111 Z
b110000001 Y
b1111111 o
b10000000 D
b10 q
b10 M
b10 H
b1111110 G
b1111110 R
b1111110 k
b1111110 n
b110 l
b111 u
b10 K
b11111100000001 m
1=
#36500
0=
#37000
b111111111 &
b111111111 %
b111111111 "
b111111111000000000111111111 W
b11111111111111111111111110000001 V
b11111111111111111111111110000001 b
b111111111111111111010000000111111111111111111111111111 I
b111111111111111111010000000111111111111111111111111111 Q
b111111111111111111010000000111111111111111111111111111 i
b111111111111111111010000000111111111111111111111111111 s
b10000000111111111000000000111111111 [
b10 Z
b1111110 Y
b11110000001 X
b11111110 .
b1111111111111111110000001 -
b11111111111111111111111 ,
b1000000000001001111011 +
b11111111111111100000001 *
b11111111111111110000001 )
b11111111100001011111011 (
b11111111111111111111111 1
b11111110 8
b10000000000000000001111111 4
b11111110 ;
b10 t
b111111100 5
b11111110 <
b11111111111111100000001 3
b111111111111111111100000010 :
b1000000000001101111001 2
b11111110 9
b11111111111111010000011 0
b111111111111111111100000010 7
b11111111100001111111001 /
b11111110 6
b11111111100000010000000 j
b11 q
b11 M
b11 H
b1111101 G
b1111101 R
b1111101 k
b1111101 n
b10 K
b111 u
b11 l
b11111010000010 m
1=
#37500
0=
#38000
b0 &
b111111111010000000111111111111111111111111111 I
b111111111010000000111111111111111111111111111 Q
b111111111010000000111111111111111111111111111 i
b111111111010000000111111111111111111111111111 s
b111111111111111111111111111 W
b11111111111111 j
b101111101 6
b101111101 7
b111111111111111111010000011 8
b101111101 9
b101111101 :
b111111111111111111010000011 ;
b101111101 <
b11 t
b111111100 .
b1101111001 5
b100000000000000000000000 -
b11111111111111010000011 4
b11111111111111100000001 ,
b100000000000000001111110 3
b1000000000001101111001 +
b1000000000010011110110 2
b11111111111111111111111 *
b11111111111111010000010 1
b11111111111111010000011 )
b100000000000000000000000 0
b11111111100001111111001 (
b11111111100010101110110 /
b111111111111111111010000000111111111111111111111111111 [
b11 Z
b1111101 Y
b11110000001 o
b110000000 D
b11111111 q
b11111111 M
b1111111111 H
b110000001 G
b110000001 R
b110000001 k
b110000001 n
b110 l
b111 u
b10 K
b11111111100000010000000 m
1=
#38500
0=
#39000
b111111111 &
b0 %
b0 "
b111111111000000000010000000111111111000000000111111111 I
b111111111000000000010000000111111111000000000111111111 Q
b111111111000000000010000000111111111000000000111111111 i
b111111111000000000010000000111111111000000000111111111 s
b111111111010000000111111111111111111111111111 [
b11111111 Z
b110000001 Y
b1101111001 .
b11111111111111010000011 -
b100000000000000001111110 ,
b1000000000010011110110 +
b11111111111111010000010 *
b100000000000000000000000 )
b11111111100010101110110 (
b11111111111111110000001 0
b111111111111111111110000001 7
b11111111111111111111111 3
b111111111111111111110000001 :
b1111111111111111 t
b1111111000 5
b1111111 <
b11111111111111000000100 4
b111111111111111111110000001 ;
b1000000000010101110101 2
b1111111 9
b11111111111111000000011 1
b111111111111111111110000001 8
b11111111100010111110101 /
b1111111 6
b100000001111110 j
b10000000 D
b1 q
b1 M
b1 H
b1111111 G
b1111111 R
b1111111 k
b1111111 n
b10 K
b111 u
b11 l
b11111111111111 m
1=
#39500
0=
#40000
b1111111 >
b1111111 L
b1111111 g
b111111111 %
b111111111 "
b111111111111111111010000000111111111111111111111111111 I
b111111111111111111010000000111111111111111111111111111 Q
b111111111111111111010000000111111111111111111111111111 i
b111111111111111111010000000111111111111111111111111111 s
b111111111000000000111111111 W
b11111111100000011111111 j
b111111111111111111110000001 6
b111111111111111111110000001 7
b1111111 8
b1111111 9
b111111111111111111110000001 :
b1111111 ;
b1111111 <
b1 t
b1111111000 .
b10001110111 5
b11111111111111000000100 -
b11111111111111010000011 4
b11111111111111111111111 ,
b11111111111111110000000 3
b1000000000010101110101 +
b1000000000010111110100 2
b11111111111111000000011 *
b11111111111111010000010 1
b11111111111111110000001 )
b11111111111111100000010 0
b11111111100010111110101 (
b11111111100010101110110 /
b111111111000000000010000000111111111000000000111111111 [
b1 Z
b1111111 Y
b0 q
b0 M
b0 H
b10000000 G
b10000000 R
b10000000 k
b10000000 n
b110 l
b111 u
b10 K
b100000001111110 m
1=
#40500
0=
#41000
b11110000001 >
b11110000001 L
b11110000001 g
b111111111111111111111111111 W
b1111111 V
b1111111 b
b111111111111111111010000000111111111111111111111111111 [
b0 Z
b10000000 Y
b1111111 X
b10001110111 .
b11111111111111010000011 -
b11111111111111110000000 ,
b1000000000010111110100 +
b11111111111111010000010 *
b11111111111111100000010 )
b11111111100010101110110 (
b11111111100010101110110 /
b0 6
b11111111111111100000010 0
b0 7
b1000000000010111110100 2
b0 9
b10001110111 5
b0 <
b0 t
b11111111111111010000011 4
b0 ;
b11111111111111110000000 3
b0 :
b11111111111111010000010 1
b0 8
b11111111100000011111111 j
b110000000 D
b11111111 q
b11111111 M
b1111111111 H
b110000001 G
b110000001 R
b110000001 k
b110000001 n
b10 K
b111 u
b11 l
b11111111100000011111111 m
1=
#41500
0=
#42000
b11111111111111111111111110000001 V
b11111111111111111111111110000001 b
b11111111100000111111101 j
b11111111100010111110101 /
b1111111 6
b11111111111111110000001 0
b1111111 7
b11111111111111100000001 1
b1111111 8
b1000000000011001110011 2
b1111111 9
b11111111111111100000001 3
b111111111111111111110000001 :
b11111111111111000000100 4
b111111111111111111110000001 ;
b10011110110 5
b1111111 <
b1111111111111111 t
b10001110111 .
b11111111111111010000011 -
b11111111111111110000000 ,
b1000000000010111110100 +
b11111111111111010000010 *
b11111111111111100000010 )
b11111111100010101110110 (
b11111111 Z
b110000001 Y
b11110000001 X
b1111111 o
b110 l
b111 u
b10 K
1=
#42500
0=
#43000
b11110000001 o
b10011110110 .
b11111111111111000000100 -
b11111111111110110000101 4
b11111111111111100000001 ,
b1000000000011001110011 +
b1000000000011011110010 2
b11111111111111100000001 *
b11111111111111110000000 1
b11111111111111110000001 )
b100000000000000000000000 0
b11111111100010111110101 (
b10001110111 5
b111111111111111111110000001 <
b11111111111111110000000 3
b1111111 :
b11111111100010101110110 /
b111111111111111111110000001 6
b11111111100000111111101 j
b11111101 q
b11111101 M
b1111111101 H
b110000011 G
b110000011 R
b110000011 k
b110000011 n
b10 K
b111 u
b11 l
b11111111100000111111101 m
1=
#43500
0=
#44000
b0 "
b111111111111111111010000000111111111000000000111111111 I
b111111111111111111010000000111111111000000000111111111 Q
b111111111111111111010000000111111111000000000111111111 i
b111111111111111111010000000111111111000000000111111111 s
b100000111111011 j
b101111101 6
b111111111111111111010000011 7
b101111101 8
b101111101 9
b101111101 :
b101111101 ;
b111111111111111111010000011 <
b1111111111111101 t
b10001110111 .
b1011111010 5
b11111111111110110000101 -
b11111111111111100000010 4
b11111111111111110000000 ,
b100000000000000011111101 3
b1000000000011011110010 +
b1000000000100001101111 2
b11111111111111110000000 *
b100000000000000011111101 1
b100000000000000000000000 )
b11111111111111010000011 0
b11111111100010101110110 (
b11111111100011011110011 /
b11111101 Z
b110000011 Y
b110 l
b111 u
b10 K
1=
#44500
0=
#45000
b1111111 >
b1111111 L
b1111111 g
b0 %
b0 #
b111111111 "
b111111111000000000111111111 W
b111111111000000000010000000000000000111111111111111111 I
b111111111000000000010000000000000000111111111111111111 Q
b111111111000000000010000000000000000111111111111111111 i
b111111111000000000010000000000000000111111111111111111 s
b111111111111111111010000000111111111000000000111111111 [
b1011111010 .
b11111111111111100000010 -
b100000000000000001111111 4
b100000000000000011111101 ,
b100000000000001001111010 3
b1000000000100001101111 +
b1000000000100111101100 2
b100000000000000011111101 *
b11111111111111010000011 )
b11111111100011011110011 (
b11111111100100001110000 /
b10001110111 5
b101111101 <
b11111111111111110000000 1
b111111111111111111010000011 8
b100000000000000000000000 0
b101111101 7
b11111111100000101111110 j
b10000000 D
b1111111101 H
b10000011 G
b10000011 R
b10000011 k
b10000011 n
b10 K
b111 u
b11 l
b100000111111011 m
1=
#45500
0=
#46000
b0 &
b111111111 #
b0 "
b10000000111111111000000000111111111 I
b10000000111111111000000000111111111 Q
b10000000111111111000000000111111111 i
b10000000111111111000000000111111111 s
b111111111111111111 W
b1111111 V
b1111111 b
b11111111100000000000001 j
b111111111111111111010000011 9
b101111101 8
b10001110111 .
b10111110100 5
b100000000000000001111111 -
b100000000000000111111100 4
b100000000000001001111010 ,
b100000000000001111110111 3
b1000000000100111101100 +
b1000000000100001101111 2
b11111111111111110000000 *
b100000000000000011111101 1
b100000000000000000000000 )
b100000000000000101111101 0
b11111111100100001110000 (
b11111111100100111101101 /
b111111111000000000010000000000000000111111111111111111 [
b10000011 Y
b1111111 X
b110000000 D
b11111110 q
b11111110 M
b1111111110 H
b110000010 G
b110000010 R
b110000010 k
b110000010 n
b110 l
b111 u
b10 K
b11111111100000101111110 m
1=
#46500
0=
#47000
b0 #
b111111111000000000111111111 W
b10000000000000000000000000111111111 I
b10000000000000000000000000111111111 Q
b10000000000000000000000000111111111 i
b10000000000000000000000000111111111 s
b1111111 o
b10000000111111111000000000111111111 [
b11111110 Z
b110000010 Y
b10111110100 .
b100000000000000111111100 -
b100000000000001111110111 ,
b1000000000100001101111 +
b100000000000000011111101 *
b100000000000000101111101 )
b11111111100100111101101 (
b11111111100101011101011 /
b11111110 6
b100000000000001001111011 0
b11111110 7
b100000000000000111111011 1
b11111110 8
b100000000000001011111010 4
b11111110 ;
b11011110010 5
b11111110 <
b1111111111111110 t
b100000000000001011111001 3
b111111111111111111100000010 :
b1000000000100101101101 2
b11111110 9
b11111111100000010000000 j
b0 q
b0 M
b0 H
b110000000 G
b110000000 R
b110000000 k
b110000000 n
b10 K
b111 u
b11 l
b11111111100000000000001 m
1=
#47500
0=
#48000
b111111111 W
b11111111100000000000001 j
b0 6
b0 7
b0 8
b0 9
b0 :
b0 ;
b0 <
b0 t
b11011110010 .
b11011110010 5
b100000000000001011111010 -
b100000000000001011111010 4
b100000000000001011111001 ,
b100000000000001011111001 3
b1000000000100101101101 +
b1000000000100101101101 2
b100000000000000111111011 *
b100000000000000111111011 1
b100000000000001001111011 )
b100000000000001001111011 0
b11111111100101011101011 (
b11111111100101011101011 /
b10000000000000000000000000111111111 [
b0 Z
b110000000 Y
b11111111 q
b11111111 M
b1111111111 H
b110000001 G
b110000001 R
b110000001 k
b110000001 n
b110 l
b111 u
b10 K
b11111111100000010000000 m
1=
#48500
0=
#49000
b11110000001 >
b11110000001 L
b11110000001 g
b11111111 Z
b110000001 Y
b11011110010 .
b100000000000001011111010 -
b100000000000001011111001 ,
b1000000000100101101101 +
b100000000000000111111011 *
b100000000000001001111011 )
b11111111100101011101011 (
b11111111100101001101100 /
b111111111111111111110000001 6
b100000000000000111111100 0
b111111111111111111110000001 7
b100000000000001001111010 1
b1111111 8
b1000000000100111101100 2
b1111111 9
b100000000000001101111000 3
b1111111 :
b100000000000001101111001 4
b1111111 ;
b11001110011 5
b111111111111111111110000001 <
b1111111111111111 t
b11111100000001 j
b0 q
b0 M
b0 H
b110000000 G
b110000000 R
b110000000 k
b110000000 n
b10 K
b111 u
b11 l
b11111111100000000000001 m
1=
#49500
0=
