rtl/dsp/ffe/sim/ffe/sim_build/ffe.vcd
$date
	Fri Jul 19 14:42:21 2019
$end
$version
	Icarus Verilog
$end
$timescale
	1ps
$end
$scope module ffe $end
$var wire 1 ! clk $end
$var wire 9 " coef0 [8:0] $end
$var wire 9 # coef1 [8:0] $end
$var wire 9 $ coef2 [8:0] $end
$var wire 9 % coef3 [8:0] $end
$var wire 9 & coef4 [8:0] $end
$var wire 9 ' coef5 [8:0] $end
$var wire 9 ( coef6 [8:0] $end
$var wire 11 ) din [10:0] $end
$var wire 1 * en $end
$var wire 1 + rst $end
$var wire 13 , dout_int [12:0] $end
$var wire 9 - dout [8:0] $end
$var integer 32 . i [31:0] $end
$upscope $end
$scope module ffe $end
$var reg 20 / \prods[0] [19:0] $end
$upscope $end
$scope module ffe $end
$var reg 20 0 \prods[1] [19:0] $end
$upscope $end
$scope module ffe $end
$var reg 20 1 \prods[2] [19:0] $end
$upscope $end
$scope module ffe $end
$var reg 20 2 \prods[3] [19:0] $end
$upscope $end
$scope module ffe $end
$var reg 20 3 \prods[4] [19:0] $end
$upscope $end
$scope module ffe $end
$var reg 20 4 \prods[5] [19:0] $end
$upscope $end
$scope module ffe $end
$var reg 20 5 \prods[6] [19:0] $end
$upscope $end
$scope module ffe $end
$var reg 12 6 \sum_reg[0] [11:0] $end
$upscope $end
$scope module ffe $end
$var reg 12 7 \sum_reg[1] [11:0] $end
$upscope $end
$scope module ffe $end
$var reg 12 8 \sum_reg[2] [11:0] $end
$upscope $end
$scope module ffe $end
$var reg 12 9 \sum_reg[3] [11:0] $end
$upscope $end
$scope module ffe $end
$var reg 12 : \sum_reg[4] [11:0] $end
$upscope $end
$scope module ffe $end
$var reg 12 ; \sum_reg[5] [11:0] $end
$upscope $end
$scope module ffe $end
$var reg 13 < \sum_next[0] [12:0] $end
$upscope $end
$scope module ffe $end
$var reg 13 = \sum_next[1] [12:0] $end
$upscope $end
$scope module ffe $end
$var reg 13 > \sum_next[2] [12:0] $end
$upscope $end
$scope module ffe $end
$var reg 13 ? \sum_next[3] [12:0] $end
$upscope $end
$scope module ffe $end
$var reg 13 @ \sum_next[4] [12:0] $end
$upscope $end
$scope module ffe $end
$var reg 13 A \sum_next[5] [12:0] $end
$upscope $end
$enddefinitions $end
#0
$dumpvars
b0 A
b0 @
b0 ?
b0 >
b0 =
b0 <
b0 ;
b0 :
b0 9
b0 8
b0 7
b0 6
b0 5
b0 4
b0 3
b0 2
b0 1
b0 0
b0 /
b101 .
b0 -
b0 ,
1+
0*
b0 )
b0 (
b0 '
b0 &
b10000000 %
b0 $
b0 #
b0 "
1!
$end
#500
0!
#1000
b0 ;
b0 :
b0 9
b0 8
b0 7
b0 6
b0 @
b0 ?
b0 >
b0 =
b0 <
b0 A
b101 .
1!
#1500
0!
#2000
b0 ;
b0 :
b0 9
b0 8
b0 7
b0 6
b0 @
b0 ?
b0 >
b0 =
b0 <
b0 A
b101 .
1!
#2500
0!
#3000
b0 ;
b0 :
b0 9
b0 8
b0 7
b0 6
b0 @
b0 ?
b0 >
b0 =
b0 <
b0 A
b101 .
1!
#3500
0!
#4000
b0 ;
b0 :
b0 9
b0 8
b0 7
b0 6
b0 @
b0 ?
b0 >
b0 =
b0 <
b0 A
b101 .
1!
#4500
0!
#5000
b0 ;
b0 :
b0 9
b0 8
b0 7
b0 6
b0 @
b0 ?
b0 >
b0 =
b0 <
b0 A
b101 .
1!
#5500
0!
#6000
b0 ;
b0 :
b0 9
b0 8
b0 7
b0 6
b0 @
b0 ?
b0 >
b0 =
b0 <
b0 A
b101 .
1!
#6500
0!
#7000
b0 ;
b0 :
b0 9
b0 8
b0 7
b0 6
b0 @
b0 ?
b0 >
b0 =
b0 <
b0 A
b101 .
1!
#7500
0!
#8000
b0 ;
b0 :
b0 9
b0 8
b0 7
b0 6
b0 @
b0 ?
b0 >
b0 =
b0 <
b0 A
b101 .
1!
#8500
0!
#9000
b0 ;
b0 :
b0 9
b0 8
b0 7
b0 6
b0 @
b0 ?
b0 >
b0 =
b0 <
b0 A
b101 .
1!
#9500
0!
#10000
b0 ;
b0 :
b0 9
b0 8
b0 7
b0 6
b0 @
b0 ?
b0 >
b0 =
b0 <
b0 A
b101 .
1!
#10500
0!
#11000
b0 ;
b0 :
b0 9
b0 8
b0 7
b0 6
b0 @
b0 ?
b0 >
b0 =
b0 <
b0 A
b101 .
1!
#11500
0!
#12000
b0 ;
b0 :
b0 9
b0 8
b0 7
b0 6
b0 @
b0 ?
b0 >
b0 =
b0 <
b0 A
b101 .
1!
#12500
0!
#13000
b0 ;
b0 :
b0 9
b0 8
b0 7
b0 6
b0 @
b0 ?
b0 >
b0 =
b0 <
b0 A
b101 .
1!
#13500
0!
#14000
b0 ;
b0 :
b0 9
b0 8
b0 7
b0 6
b0 @
b0 ?
b0 >
b0 =
b0 <
b0 A
b101 .
1!
#14500
0!
#15000
0+
b0 ;
b0 :
b0 9
b0 8
b0 7
b0 6
b0 @
b0 ?
b0 >
b0 =
b0 <
b0 A
b101 .
1!
#15500
0!
#16000
1*
1!
#16500
0!
#17000
b0 ;
b0 :
b0 9
b0 8
b0 7
b0 6
b0 @
b0 ?
b0 >
b0 =
b0 <
b0 A
b101 .
1!
#17500
0!
#18000
b0 ;
b0 :
b0 9
b0 8
b0 7
b0 6
b0 @
b0 ?
b0 >
b0 =
b0 <
b0 A
b101 .
1!
#18500
0!
#19000
b0 ;
b0 :
b0 9
b0 8
b0 7
b0 6
b0 @
b0 ?
b0 >
b0 =
b0 <
b0 A
b101 .
1!
#19500
0!
#20000
b0 ;
b0 :
b0 9
b0 8
b0 7
b0 6
b0 @
b0 ?
b0 >
b0 =
b0 <
b0 A
b101 .
1!
#20500
0!
#21000
b0 ;
b0 :
b0 9
b0 8
b0 7
b0 6
b0 @
b0 ?
b0 >
b0 =
b0 <
b0 A
b101 .
1!
#21500
0!
#22000
b0 ;
b0 :
b0 9
b0 8
b0 7
b0 6
b0 @
b0 ?
b0 >
b0 =
b0 <
b0 A
b101 .
1!
#22500
0!
#23000
b0 ;
b0 :
b0 9
b0 8
b0 7
b0 6
b0 @
b0 ?
b0 >
b0 =
b0 <
b0 A
b101 .
1!
#23500
0!
#24000
b0 ;
b0 :
b0 9
b0 8
b0 7
b0 6
b0 @
b0 ?
b0 >
b0 =
b0 <
b0 A
b101 .
1!
#24500
0!
#25000
b0 ;
b0 :
b0 9
b0 8
b0 7
b0 6
b0 @
b0 ?
b0 >
b0 =
b0 <
b0 A
b101 .
1!
#25500
0!
#26000
b0 ;
b0 :
b0 9
b0 8
b0 7
b0 6
b0 @
b0 ?
b111110000000 >
b0 =
b0 <
b0 A
b0 5
b0 4
b0 3
b11111100000000000000 2
b0 1
b0 0
b0 /
b101 .
b11110000000 )
1!
#26500
0!
#27000
b0 ;
b0 :
b0 9
b111110000000 8
b0 7
b0 6
b0 @
b0 ?
b111110000000 >
b111110000000 =
b0 <
b0 A
b101 .
1!
#27500
0!
#28000
b0 5
b0 4
b0 3
b100000000000000 2
b0 1
b0 0
b0 /
b10000000 )
b0 ;
b0 :
b0 9
b111110000000 8
b111110000000 7
b0 6
b0 @
b0 ?
b10000000 >
b111110000000 =
b111110000000 <
b0 A
b101 .
1!
#28500
0!
#29000
b0 5
b0 4
b0 3
b11111100000000000000 2
b0 1
b0 0
b0 /
b11110000000 )
b110000000 -
b0 ;
b0 :
b0 9
b10000000 8
b111110000000 7
b111110000000 6
b111110000000 ,
b0 @
b0 ?
b111110000000 >
b10000000 =
b111110000000 <
b0 A
b101 .
1!
#29500
0!
#30000
b0 5
b0 4
b0 3
b100000000000000 2
b0 1
b0 0
b0 /
b10000000 )
b0 ;
b0 :
b0 9
b111110000000 8
b10000000 7
b111110000000 6
b0 @
b0 ?
b10000000 >
b111110000000 =
b10000000 <
b0 A
b101 .
1!
#30500
0!
#31000
b10000000 -
b0 ;
b0 :
b0 9
b10000000 8
b111110000000 7
b10000000 6
b10000000 ,
b0 @
b0 ?
b10000000 >
b10000000 =
b111110000000 <
b0 A
b101 .
1!
#31500
0!
#32000
b0 5
b0 4
b0 3
b11111100000000000000 2
b0 1
b0 0
b0 /
b11110000000 )
b110000000 -
b0 ;
b0 :
b0 9
b10000000 8
b10000000 7
b111110000000 6
b111110000000 ,
b0 @
b0 ?
b111110000000 >
b10000000 =
b10000000 <
b0 A
b101 .
1!
#32500
0!
#33000
b0 5
b0 4
b0 3
b100000000000000 2
b0 1
b0 0
b0 /
b10000000 )
b10000000 -
b0 ;
b0 :
b0 9
b111110000000 8
b10000000 7
b10000000 6
b10000000 ,
b0 @
b0 ?
b10000000 >
b111110000000 =
b10000000 <
b0 A
b101 .
1!
#33500
0!
#34000
b0 ;
b0 :
b0 9
b10000000 8
b111110000000 7
b10000000 6
b0 @
b0 ?
b10000000 >
b10000000 =
b111110000000 <
b0 A
b101 .
1!
#34500
0!
#35000
b110000000 -
b0 ;
b0 :
b0 9
b10000000 8
b10000000 7
b111110000000 6
b111110000000 ,
b0 @
b0 ?
b10000000 >
b10000000 =
b10000000 <
b0 A
b101 .
1!
#35500
0!
#36000
b10000000 -
b0 ;
b0 :
b0 9
b10000000 8
b10000000 7
b10000000 6
b10000000 ,
b0 @
b0 ?
b10000000 >
b10000000 =
b10000000 <
b0 A
b101 .
1!
#36500
0!
#37000
b0 5
b0 4
b0 3
b11111100000000000000 2
b0 1
b0 0
b0 /
b11110000000 )
b0 ;
b0 :
b0 9
b10000000 8
b10000000 7
b10000000 6
b0 @
b0 ?
b111110000000 >
b10000000 =
b10000000 <
b0 A
b101 .
1!
#37500
0!
#38000
b0 5
b0 4
b0 3
b100000000000000 2
b0 1
b0 0
b0 /
b10000000 )
b0 ;
b0 :
b0 9
b111110000000 8
b10000000 7
b10000000 6
b0 @
b0 ?
b10000000 >
b111110000000 =
b10000000 <
b0 A
b101 .
1!
#38500
0!
#39000
b0 5
b0 4
b0 3
b11111100000000000000 2
b0 1
b0 0
b0 /
b11110000000 )
b0 ;
b0 :
b0 9
b10000000 8
b111110000000 7
b10000000 6
b0 @
b0 ?
b111110000000 >
b10000000 =
b111110000000 <
b0 A
b101 .
1!
#39500
0!
#40000
b0 5
b0 4
b0 3
b100000000000000 2
b0 1
b0 0
b0 /
b10000000 )
b110000000 -
b0 ;
b0 :
b0 9
b111110000000 8
b10000000 7
b111110000000 6
b111110000000 ,
b0 @
b0 ?
b10000000 >
b111110000000 =
b10000000 <
b0 A
b101 .
1!
#40500
0!
#41000
b0 5
b0 4
b0 3
b11111100000000000000 2
b0 1
b0 0
b0 /
b11110000000 )
b10000000 -
b0 ;
b0 :
b0 9
b10000000 8
b111110000000 7
b10000000 6
b10000000 ,
b0 @
b0 ?
b111110000000 >
b10000000 =
b111110000000 <
b0 A
b101 .
1!
#41500
0!
#42000
b0 5
b0 4
b0 3
b100000000000000 2
b0 1
b0 0
b0 /
b10000000 )
b110000000 -
b0 ;
b0 :
b0 9
b111110000000 8
b10000000 7
b111110000000 6
b111110000000 ,
b0 @
b0 ?
b10000000 >
b111110000000 =
b10000000 <
b0 A
b101 .
1!
#42500
0!
#43000
b10000000 -
b0 ;
b0 :
b0 9
b10000000 8
b111110000000 7
b10000000 6
b10000000 ,
b0 @
b0 ?
b10000000 >
b10000000 =
b111110000000 <
b0 A
b101 .
1!
#43500
0!
#44000
b110000000 -
b0 ;
b0 :
b0 9
b10000000 8
b10000000 7
b111110000000 6
b111110000000 ,
b0 @
b0 ?
b10000000 >
b10000000 =
b10000000 <
b0 A
b101 .
1!
#44500
0!
#45000
b0 5
b0 4
b0 3
b11111100000000000000 2
b0 1
b0 0
b0 /
b11110000000 )
b10000000 -
b0 ;
b0 :
b0 9
b10000000 8
b10000000 7
b10000000 6
b10000000 ,
b0 @
b0 ?
b111110000000 >
b10000000 =
b10000000 <
b0 A
b101 .
1!
#45500
0!
#46000
b0 ;
b0 :
b0 9
b111110000000 8
b10000000 7
b10000000 6
b0 @
b0 ?
b111110000000 >
b111110000000 =
b10000000 <
b0 A
b101 .
1!
#46500
0!
#47000
b0 5
b0 4
b0 3
b100000000000000 2
b0 1
b0 0
b0 /
b10000000 )
b0 ;
b0 :
b0 9
b111110000000 8
b111110000000 7
b10000000 6
b0 @
b0 ?
b10000000 >
b111110000000 =
b111110000000 <
b0 A
b101 .
1!
#47500
0!
#48000
b110000000 -
b0 ;
b0 :
b0 9
b10000000 8
b111110000000 7
b111110000000 6
b111110000000 ,
b0 @
b0 ?
b10000000 >
b10000000 =
b111110000000 <
b0 A
b101 .
1!
#48500
0!
#49000
b0 ;
b0 :
b0 9
b10000000 8
b10000000 7
b111110000000 6
b0 @
b0 ?
b10000000 >
b10000000 =
b10000000 <
b0 A
b101 .
1!
#49500
0!
#50000
b0 5
b0 4
b0 3
b11111100000000000000 2
b0 1
b0 0
b0 /
b11110000000 )
b10000000 -
b0 ;
b0 :
b0 9
b10000000 8
b10000000 7
b10000000 6
b10000000 ,
b0 @
b0 ?
b111110000000 >
b10000000 =
b10000000 <
b0 A
b101 .
1!
#50500
0!
#51000
b0 ;
b0 :
b0 9
b111110000000 8
b10000000 7
b10000000 6
b0 @
b0 ?
b111110000000 >
b111110000000 =
b10000000 <
b0 A
b101 .
1!
#51500
0!
#52000
b0 ;
b0 :
b0 9
b111110000000 8
b111110000000 7
b10000000 6
b0 @
b0 ?
b111110000000 >
b111110000000 =
b111110000000 <
b0 A
b101 .
1!
#52500
0!
#53000
b110000000 -
b0 ;
b0 :
b0 9
b111110000000 8
b111110000000 7
b111110000000 6
b111110000000 ,
b0 @
b0 ?
b111110000000 >
b111110000000 =
b111110000000 <
b0 A
b101 .
1!
#53500
0!
#54000
b0 5
b0 4
b0 3
b100000000000000 2
b0 1
b0 0
b0 /
b10000000 )
b0 ;
b0 :
b0 9
b111110000000 8
b111110000000 7
b111110000000 6
b0 @
b0 ?
b10000000 >
b111110000000 =
b111110000000 <
b0 A
b101 .
1!
#54500
0!
#55000
b0 5
b0 4
b0 3
b11111100000000000000 2
b0 1
b0 0
b0 /
b11110000000 )
b0 ;
b0 :
b0 9
b10000000 8
b111110000000 7
b111110000000 6
b0 @
b0 ?
b111110000000 >
b10000000 =
b111110000000 <
b0 A
b101 .
1!
#55500
0!
#56000
b0 5
b0 4
b0 3
b100000000000000 2
b0 1
b0 0
b0 /
b10000000 )
b0 ;
b0 :
b0 9
b111110000000 8
b10000000 7
b111110000000 6
b0 @
b0 ?
b10000000 >
b111110000000 =
b10000000 <
b0 A
b101 .
1!
#56500
0!
#57000
b10000000 -
b0 ;
b0 :
b0 9
b10000000 8
b111110000000 7
b10000000 6
b10000000 ,
b0 @
b0 ?
b10000000 >
b10000000 =
b111110000000 <
b0 A
b101 .
1!
#57500
0!
#58000
b110000000 -
b0 ;
b0 :
b0 9
b10000000 8
b10000000 7
b111110000000 6
b111110000000 ,
b0 @
b0 ?
b10000000 >
b10000000 =
b10000000 <
b0 A
b101 .
1!
#58500
0!
#59000
b0 5
b0 4
b0 3
b11111100000000000000 2
b0 1
b0 0
b0 /
b11110000000 )
b10000000 -
b0 ;
b0 :
b0 9
b10000000 8
b10000000 7
b10000000 6
b10000000 ,
b0 @
b0 ?
b111110000000 >
b10000000 =
b10000000 <
b0 A
b101 .
1!
#59500
0!
#60000
b0 ;
b0 :
b0 9
b111110000000 8
b10000000 7
b10000000 6
b0 @
b0 ?
b111110000000 >
b111110000000 =
b10000000 <
b0 A
b101 .
1!
#60500
0!
#61000
b0 5
b0 4
b0 3
b100000000000000 2
b0 1
b0 0
b0 /
b10000000 )
b0 ;
b0 :
b0 9
b111110000000 8
b111110000000 7
b10000000 6
b0 @
b0 ?
b10000000 >
b111110000000 =
b111110000000 <
b0 A
b101 .
1!
#61500
0!
#62000
b0 5
b0 4
b0 3
b11111100000000000000 2
b0 1
b0 0
b0 /
b11110000000 )
b110000000 -
b0 ;
b0 :
b0 9
b10000000 8
b111110000000 7
b111110000000 6
b111110000000 ,
b0 @
b0 ?
b111110000000 >
b10000000 =
b111110000000 <
b0 A
b101 .
1!
#62500
0!
#63000
b0 ;
b0 :
b0 9
b111110000000 8
b10000000 7
b111110000000 6
b0 @
b0 ?
b111110000000 >
b111110000000 =
b10000000 <
b0 A
b101 .
1!
#63500
0!
#64000
b0 5
b0 4
b0 3
b100000000000000 2
b0 1
b0 0
b0 /
b10000000 )
b10000000 -
b0 ;
b0 :
b0 9
b111110000000 8
b111110000000 7
b10000000 6
b10000000 ,
b0 @
b0 ?
b10000000 >
b111110000000 =
b111110000000 <
b0 A
b101 .
1!
#64500
0!
#65000
b110000000 -
b0 ;
b0 :
b0 9
b10000000 8
b111110000000 7
b111110000000 6
b111110000000 ,
b0 @
b0 ?
b10000000 >
b10000000 =
b111110000000 <
b0 A
b101 .
1!
#65500
0!
#66000
b0 ;
b0 :
b0 9
b10000000 8
b10000000 7
b111110000000 6
b0 @
b0 ?
b10000000 >
b10000000 =
b10000000 <
b0 A
b101 .
1!
#66500
0!
#67000
b10000000 -
b0 ;
b0 :
b0 9
b10000000 8
b10000000 7
b10000000 6
b10000000 ,
b0 @
b0 ?
b10000000 >
b10000000 =
b10000000 <
b0 A
b101 .
1!
#67500
0!
#68000
b0 5
b0 4
b0 3
b11111100000000000000 2
b0 1
b0 0
b0 /
b11110000000 )
b0 ;
b0 :
b0 9
b10000000 8
b10000000 7
b10000000 6
b0 @
b0 ?
b111110000000 >
b10000000 =
b10000000 <
b0 A
b101 .
1!
#68500
0!
#69000
b0 ;
b0 :
b0 9
b111110000000 8
b10000000 7
b10000000 6
b0 @
b0 ?
b111110000000 >
b111110000000 =
b10000000 <
b0 A
b101 .
1!
#69500
0!
#70000
b0 5
b0 4
b0 3
b100000000000000 2
b0 1
b0 0
b0 /
b10000000 )
b0 ;
b0 :
b0 9
b111110000000 8
b111110000000 7
b10000000 6
b0 @
b0 ?
b10000000 >
b111110000000 =
b111110000000 <
b0 A
b101 .
1!
#70500
0!
#71000
b0 5
b0 4
b0 3
b11111100000000000000 2
b0 1
b0 0
b0 /
b11110000000 )
b110000000 -
b0 ;
b0 :
b0 9
b10000000 8
b111110000000 7
b111110000000 6
b111110000000 ,
b0 @
b0 ?
b111110000000 >
b10000000 =
b111110000000 <
b0 A
b101 .
1!
#71500
0!
#72000
b0 5
b0 4
b0 3
b100000000000000 2
b0 1
b0 0
b0 /
b10000000 )
b0 ;
b0 :
b0 9
b111110000000 8
b10000000 7
b111110000000 6
b0 @
b0 ?
b10000000 >
b111110000000 =
b10000000 <
b0 A
b101 .
1!
#72500
0!
#73000
b0 5
b0 4
b0 3
b11111100000000000000 2
b0 1
b0 0
b0 /
b11110000000 )
b10000000 -
b0 ;
b0 :
b0 9
b10000000 8
b111110000000 7
b10000000 6
b10000000 ,
b0 @
b0 ?
b111110000000 >
b10000000 =
b111110000000 <
b0 A
b101 .
1!
#73500
0!
#74000
b110000000 -
b0 ;
b0 :
b0 9
b111110000000 8
b10000000 7
b111110000000 6
b111110000000 ,
b0 @
b0 ?
b111110000000 >
b111110000000 =
b10000000 <
b0 A
b101 .
1!
#74500
0!
#75000
b0 5
b0 4
b0 3
b100000000000000 2
b0 1
b0 0
b0 /
b10000000 )
b10000000 -
b0 ;
b0 :
b0 9
b111110000000 8
b111110000000 7
b10000000 6
b10000000 ,
b0 @
b0 ?
b10000000 >
b111110000000 =
b111110000000 <
b0 A
b101 .
1!
#75500
0!
#76000
b110000000 -
b0 ;
b0 :
b0 9
b10000000 8
b111110000000 7
b111110000000 6
b111110000000 ,
b0 @
b0 ?
b10000000 >
b10000000 =
b111110000000 <
b0 A
b101 .
1!
#76500
0!
#77000
b0 ;
b0 :
b0 9
b10000000 8
b10000000 7
b111110000000 6
b0 @
b0 ?
b10000000 >
b10000000 =
b10000000 <
b0 A
b101 .
1!
#77500
0!
#78000
b10000000 -
b0 ;
b0 :
b0 9
b10000000 8
b10000000 7
b10000000 6
b10000000 ,
b0 @
b0 ?
b10000000 >
b10000000 =
b10000000 <
b0 A
b101 .
1!
#78500
0!
#79000
b0 ;
b0 :
b0 9
b10000000 8
b10000000 7
b10000000 6
b0 @
b0 ?
b10000000 >
b10000000 =
b10000000 <
b0 A
b101 .
1!
#79500
0!
#80000
b0 5
b0 4
b0 3
b11111100000000000000 2
b0 1
b0 0
b0 /
b11110000000 )
b0 ;
b0 :
b0 9
b10000000 8
b10000000 7
b10000000 6
b0 @
b0 ?
b111110000000 >
b10000000 =
b10000000 <
b0 A
b101 .
1!
#80500
0!
#81000
b0 5
b0 4
b0 3
b100000000000000 2
b0 1
b0 0
b0 /
b10000000 )
b0 ;
b0 :
b0 9
b111110000000 8
b10000000 7
b10000000 6
b0 @
b0 ?
b10000000 >
b111110000000 =
b10000000 <
b0 A
b101 .
1!
#81500
0!
#82000
b0 ;
b0 :
b0 9
b10000000 8
b111110000000 7
b10000000 6
b0 @
b0 ?
b10000000 >
b10000000 =
b111110000000 <
b0 A
b101 .
1!
#82500
0!
#83000
b0 5
b0 4
b0 3
b11111100000000000000 2
b0 1
b0 0
b0 /
b11110000000 )
b110000000 -
b0 ;
b0 :
b0 9
b10000000 8
b10000000 7
b111110000000 6
b111110000000 ,
b0 @
b0 ?
b111110000000 >
b10000000 =
b10000000 <
b0 A
b101 .
1!
#83500
0!
#84000
b0 5
b0 4
b0 3
b100000000000000 2
b0 1
b0 0
b0 /
b10000000 )
b10000000 -
b0 ;
b0 :
b0 9
b111110000000 8
b10000000 7
b10000000 6
b10000000 ,
b0 @
b0 ?
b10000000 >
b111110000000 =
b10000000 <
b0 A
b101 .
1!
#84500
0!
#85000
b0 5
b0 4
b0 3
b11111100000000000000 2
b0 1
b0 0
b0 /
b11110000000 )
b0 ;
b0 :
b0 9
b10000000 8
b111110000000 7
b10000000 6
b0 @
b0 ?
b111110000000 >
b10000000 =
b111110000000 <
b0 A
b101 .
1!
#85500
0!
#86000
b110000000 -
b0 ;
b0 :
b0 9
b111110000000 8
b10000000 7
b111110000000 6
b111110000000 ,
b0 @
b0 ?
b111110000000 >
b111110000000 =
b10000000 <
b0 A
b101 .
1!
#86500
0!
#87000
b10000000 -
b0 ;
b0 :
b0 9
b111110000000 8
b111110000000 7
b10000000 6
b10000000 ,
b0 @
b0 ?
b111110000000 >
b111110000000 =
b111110000000 <
b0 A
b101 .
1!
#87500
0!
#88000
b110000000 -
b0 ;
b0 :
b0 9
b111110000000 8
b111110000000 7
b111110000000 6
b111110000000 ,
b0 @
b0 ?
b111110000000 >
b111110000000 =
b111110000000 <
b0 A
b101 .
1!
#88500
0!
#89000
b0 ;
b0 :
b0 9
b111110000000 8
b111110000000 7
b111110000000 6
b0 @
b0 ?
b111110000000 >
b111110000000 =
b111110000000 <
b0 A
b101 .
1!
#89500
0!
#90000
b0 ;
b0 :
b0 9
b111110000000 8
b111110000000 7
b111110000000 6
b0 @
b0 ?
b111110000000 >
b111110000000 =
b111110000000 <
b0 A
b101 .
1!
#90500
0!
#91000
b0 5
b0 4
b0 3
b100000000000000 2
b0 1
b0 0
b0 /
b10000000 )
b0 ;
b0 :
b0 9
b111110000000 8
b111110000000 7
b111110000000 6
b0 @
b0 ?
b10000000 >
b111110000000 =
b111110000000 <
b0 A
b101 .
1!
#91500
0!
#92000
b0 5
b0 4
b0 3
b11111100000000000000 2
b0 1
b0 0
b0 /
b11110000000 )
b0 ;
b0 :
b0 9
b10000000 8
b111110000000 7
b111110000000 6
b0 @
b0 ?
b111110000000 >
b10000000 =
b111110000000 <
b0 A
b101 .
1!
#92500
0!
#93000
b0 ;
b0 :
b0 9
b111110000000 8
b10000000 7
b111110000000 6
b0 @
b0 ?
b111110000000 >
b111110000000 =
b10000000 <
b0 A
b101 .
1!
#93500
0!
#94000
b10000000 -
b0 ;
b0 :
b0 9
b111110000000 8
b111110000000 7
b10000000 6
b10000000 ,
b0 @
b0 ?
b111110000000 >
b111110000000 =
b111110000000 <
b0 A
b101 .
1!
#94500
0!
#95000
b0 5
b0 4
b0 3
b100000000000000 2
b0 1
b0 0
b0 /
b10000000 )
b110000000 -
b0 ;
b0 :
b0 9
b111110000000 8
b111110000000 7
b111110000000 6
b111110000000 ,
b0 @
b0 ?
b10000000 >
b111110000000 =
b111110000000 <
b0 A
b101 .
1!
#95500
0!
#96000
b0 5
b0 4
b0 3
b11111100000000000000 2
b0 1
b0 0
b0 /
b11110000000 )
b0 ;
b0 :
b0 9
b10000000 8
b111110000000 7
b111110000000 6
b0 @
b0 ?
b111110000000 >
b10000000 =
b111110000000 <
b0 A
b101 .
1!
#96500
0!
#97000
b0 ;
b0 :
b0 9
b111110000000 8
b10000000 7
b111110000000 6
b0 @
b0 ?
b111110000000 >
b111110000000 =
b10000000 <
b0 A
b101 .
1!
#97500
0!
#98000
b10000000 -
b0 ;
b0 :
b0 9
b111110000000 8
b111110000000 7
b10000000 6
b10000000 ,
b0 @
b0 ?
b111110000000 >
b111110000000 =
b111110000000 <
b0 A
b101 .
1!
#98500
0!
#99000
b0 5
b0 4
b0 3
b100000000000000 2
b0 1
b0 0
b0 /
b10000000 )
b110000000 -
b0 ;
b0 :
b0 9
b111110000000 8
b111110000000 7
b111110000000 6
b111110000000 ,
b0 @
b0 ?
b10000000 >
b111110000000 =
b111110000000 <
b0 A
b101 .
1!
#99500
0!
#100000
b0 5
b0 4
b0 3
b11111100000000000000 2
b0 1
b0 0
b0 /
b11110000000 )
b0 ;
b0 :
b0 9
b10000000 8
b111110000000 7
b111110000000 6
b0 @
b0 ?
b111110000000 >
b10000000 =
b111110000000 <
b0 A
b101 .
1!
#100500
0!
#101000
b0 5
b0 4
b0 3
b100000000000000 2
b0 1
b0 0
b0 /
b10000000 )
b0 ;
b0 :
b0 9
b111110000000 8
b10000000 7
b111110000000 6
b0 @
b0 ?
b10000000 >
b111110000000 =
b10000000 <
b0 A
b101 .
1!
#101500
0!
#102000
b10000000 -
b0 ;
b0 :
b0 9
b10000000 8
b111110000000 7
b10000000 6
b10000000 ,
b0 @
b0 ?
b10000000 >
b10000000 =
b111110000000 <
b0 A
b101 .
1!
#102500
0!
#103000
b110000000 -
b0 ;
b0 :
b0 9
b10000000 8
b10000000 7
b111110000000 6
b111110000000 ,
b0 @
b0 ?
b10000000 >
b10000000 =
b10000000 <
b0 A
b101 .
1!
#103500
0!
#104000
b10000000 -
b0 ;
b0 :
b0 9
b10000000 8
b10000000 7
b10000000 6
b10000000 ,
b0 @
b0 ?
b10000000 >
b10000000 =
b10000000 <
b0 A
b101 .
1!
#104500
0!
#105000
b0 5
b0 4
b0 3
b11111100000000000000 2
b0 1
b0 0
b0 /
b11110000000 )
b0 ;
b0 :
b0 9
b10000000 8
b10000000 7
b10000000 6
b0 @
b0 ?
b111110000000 >
b10000000 =
b10000000 <
b0 A
b101 .
1!
#105500
0!
#106000
b0 5
b0 4
b0 3
b100000000000000 2
b0 1
b0 0
b0 /
b10000000 )
b0 ;
b0 :
b0 9
b111110000000 8
b10000000 7
b10000000 6
b0 @
b0 ?
b10000000 >
b111110000000 =
b10000000 <
b0 A
b101 .
1!
#106500
0!
#107000
b0 5
b0 4
b0 3
b11111100000000000000 2
b0 1
b0 0
b0 /
b11110000000 )
b0 ;
b0 :
b0 9
b10000000 8
b111110000000 7
b10000000 6
b0 @
b0 ?
b111110000000 >
b10000000 =
b111110000000 <
b0 A
b101 .
1!
#107500
0!
#108000
b110000000 -
b0 ;
b0 :
b0 9
b111110000000 8
b10000000 7
b111110000000 6
b111110000000 ,
b0 @
b0 ?
b111110000000 >
b111110000000 =
b10000000 <
b0 A
b101 .
1!
#108500
0!
#109000
b10000000 -
b0 ;
b0 :
b0 9
b111110000000 8
b111110000000 7
b10000000 6
b10000000 ,
b0 @
b0 ?
b111110000000 >
b111110000000 =
b111110000000 <
b0 A
b101 .
1!
#109500
0!
#110000
b0 5
b0 4
b0 3
b100000000000000 2
b0 1
b0 0
b0 /
b10000000 )
b110000000 -
b0 ;
b0 :
b0 9
b111110000000 8
b111110000000 7
b111110000000 6
b111110000000 ,
b0 @
b0 ?
b10000000 >
b111110000000 =
b111110000000 <
b0 A
b101 .
1!
#110500
0!
#111000
b0 5
b0 4
b0 3
b11111100000000000000 2
b0 1
b0 0
b0 /
b11110000000 )
b0 ;
b0 :
b0 9
b10000000 8
b111110000000 7
b111110000000 6
b0 @
b0 ?
b111110000000 >
b10000000 =
b111110000000 <
b0 A
b101 .
1!
#111500
0!
#112000
b0 ;
b0 :
b0 9
b111110000000 8
b10000000 7
b111110000000 6
b0 @
b0 ?
b111110000000 >
b111110000000 =
b10000000 <
b0 A
b101 .
1!
#112500
0!
#113000
b0 5
b0 4
b0 3
b100000000000000 2
b0 1
b0 0
b0 /
b10000000 )
b10000000 -
b0 ;
b0 :
b0 9
b111110000000 8
b111110000000 7
b10000000 6
b10000000 ,
b0 @
b0 ?
b10000000 >
b111110000000 =
b111110000000 <
b0 A
b101 .
1!
#113500
0!
#114000
b0 5
b0 4
b0 3
b11111100000000000000 2
b0 1
b0 0
b0 /
b11110000000 )
b110000000 -
b0 ;
b0 :
b0 9
b10000000 8
b111110000000 7
b111110000000 6
b111110000000 ,
b0 @
b0 ?
b111110000000 >
b10000000 =
b111110000000 <
b0 A
b101 .
1!
#114500
0!
#115000
b0 5
b0 4
b0 3
b100000000000000 2
b0 1
b0 0
b0 /
b10000000 )
b0 ;
b0 :
b0 9
b111110000000 8
b10000000 7
b111110000000 6
b0 @
b0 ?
b10000000 >
b111110000000 =
b10000000 <
b0 A
b101 .
1!
#115500
0!
