rtl/dsp/sim/dump.vcd
$date
	Mon Jul 29 16:25:06 2019
$end
$version
	Icarus Verilog
$end
$timescale
	1ps
$end
$scope module dsp $end
$scope module lms_inst $end
$var wire 25 ! \correction_term[0] [24:0] $end
$upscope $end
$upscope $end
$scope module dsp $end
$scope module lms_inst $end
$var wire 25 " \correction_term[1] [24:0] $end
$upscope $end
$upscope $end
$scope module dsp $end
$scope module lms_inst $end
$var wire 25 # \correction_term[2] [24:0] $end
$upscope $end
$upscope $end
$scope module dsp $end
$scope module lms_inst $end
$var wire 25 $ \correction_term[3] [24:0] $end
$upscope $end
$upscope $end
$scope module dsp $end
$scope module lms_inst $end
$var wire 25 % \correction_term[4] [24:0] $end
$upscope $end
$upscope $end
$scope module dsp $end
$scope module lms_inst $end
$var wire 25 & \correction_term[5] [24:0] $end
$upscope $end
$upscope $end
$scope module dsp $end
$scope module lms_inst $end
$var wire 25 ' \correction_term[6] [24:0] $end
$upscope $end
$upscope $end
$scope module dsp $end
$var wire 1 ( clockdsp $end
$var wire 11 ) connect_ch_to_dsp [10:0] $end
$var wire 1 * log_in_ram_run_from_micro $end
$var wire 15 + log_read_addr_from_micro [14:0] $end
$var wire 4 , rf_enables_module [3:0] $end
$var wire 1 - soft_reset $end
$var wire 8 . step_mu [7:0] $end
$var wire 9 / slice [8:0] $end
$var wire 1 0 log_out_full_from_ram $end
$var wire 32 1 log_data_from_ram [31:0] $end
$var wire 9 2 ffe_out [8:0] $end
$var wire 10 3 error [9:0] $end
$var wire 63 4 coefs [62:0] $end
$var reg 8 5 step_mu_reg [7:0] $end
$scope module bram_inst $end
$var wire 1 ( clockdsp $end
$var wire 11 6 log_in_1 [10:0] $end
$var wire 8 7 log_in_3 [7:0] $end
$var wire 1 8 log_in_4 $end
$var wire 1 * log_in_ram_run_from_micro $end
$var wire 3 9 log_input_select [2:0] $end
$var wire 1 0 log_out_full_from_ram $end
$var wire 15 : log_read_addr_from_micro [14:0] $end
$var wire 1 - soft_reset $end
$var wire 1 ; write_mem $end
$var wire 9 < log_in_2 [8:0] $end
$var wire 32 = log_data_from_ram [31:0] $end
$var wire 1 > last_addr $end
$var wire 15 ? address_mem [14:0] $end
$var reg 32 @ data_mem [31:0] $end
$var reg 11 A log_in_1_reg [10:0] $end
$var reg 9 B log_in_2_reg [8:0] $end
$var reg 8 C log_in_3_reg [7:0] $end
$var reg 1 D log_in_4_reg $end
$scope module address_count $end
$var wire 1 ( clk $end
$var wire 15 E q [14:0] $end
$var wire 1 - rst $end
$var wire 1 ; run $end
$var wire 15 F r_next [14:0] $end
$var wire 1 > max $end
$var reg 15 G r_reg [14:0] $end
$upscope $end
$scope module fsm $end
$var wire 1 ( clk $end
$var wire 1 > last_addr $end
$var wire 1 - rst $end
$var wire 1 * run $end
$var wire 1 ; write $end
$var reg 1 ; current_state $end
$var reg 1 H next_state $end
$upscope $end
$scope module log_ram $end
$var wire 15 I address_a [14:0] $end
$var wire 15 J address_b [14:0] $end
$var wire 1 ( clk $end
$var wire 32 K din [31:0] $end
$var wire 32 L dout_a [31:0] $end
$var wire 32 M dout_b [31:0] $end
$var wire 1 ; we $end
$var reg 32 N read_addr_a [31:0] $end
$var reg 32 O read_addr_b [31:0] $end
$upscope $end
$upscope $end
$scope module ffe_inst $end
$var wire 1 ( i_clk $end
$var wire 11 P i_data [10:0] $end
$var wire 1 Q i_en $end
$var wire 1 - i_rst $end
$var wire 9 R o_data [8:0] $end
$var wire 63 S i_coefs [62:0] $end
$var wire 13 T dout_int [12:0] $end
$var integer 32 U i [31:0] $end
$scope begin genblk1[0] $end
$upscope $end
$scope begin genblk1[1] $end
$upscope $end
$scope begin genblk1[2] $end
$upscope $end
$scope begin genblk1[3] $end
$upscope $end
$scope begin genblk1[4] $end
$upscope $end
$scope begin genblk1[5] $end
$upscope $end
$scope begin genblk1[6] $end
$upscope $end
$scope begin genblk2[0] $end
$upscope $end
$scope begin genblk2[1] $end
$upscope $end
$scope begin genblk2[2] $end
$upscope $end
$scope begin genblk2[3] $end
$upscope $end
$scope begin genblk2[4] $end
$upscope $end
$scope begin genblk2[5] $end
$upscope $end
$scope begin genblk2[6] $end
$upscope $end
$scope begin genblk3[0] $end
$upscope $end
$scope begin genblk3[1] $end
$upscope $end
$scope begin genblk3[2] $end
$upscope $end
$scope begin genblk3[3] $end
$upscope $end
$scope begin genblk3[4] $end
$upscope $end
$upscope $end
$scope module lms_inst $end
$var wire 1 ( i_clk $end
$var wire 11 V i_data [10:0] $end
$var wire 1 W i_en $end
$var wire 8 X i_error [7:0] $end
$var wire 8 Y i_mu [7:0] $end
$var wire 1 - i_rst $end
$var wire 63 Z o_coefs [62:0] $end
$var wire 16 [ error_weightened [15:0] $end
$var reg 9 \ coef5_dl [8:0] $end
$var integer 32 ] i [31:0] $end
$scope begin genblk1[0] $end
$upscope $end
$scope begin genblk1[1] $end
$upscope $end
$scope begin genblk1[2] $end
$upscope $end
$scope begin genblk1[3] $end
$upscope $end
$scope begin genblk1[4] $end
$upscope $end
$scope begin genblk1[5] $end
$upscope $end
$scope begin genblk1[6] $end
$upscope $end
$upscope $end
$upscope $end
$enddefinitions $end
#0
$dumpvars
b111 ]
b0 \
b0 [
b10000000000000000000000000000000000000000000 Z
b0 Y
b10000000 X
0W
b0 V
b110 U
b0 T
b10000000000000000000000000000000000000000000 S
b0 R
0Q
b0 P
b0 O
b0xxxxxxxxxxxxxxx N
bx M
bx L
b0 K
b0 J
b0 I
0H
b0 G
b1 F
b0 E
0D
b0 C
b0 B
b0 A
b0 @
b0 ?
0>
bx =
b0 <
0;
b0 :
b0 9
08
b10000000 7
b0 6
b0 5
b10000000000000000000000000000000000000000000 4
b1110000000 3
b0 2
bx 1
00
b110000000 /
b0 .
1-
b0 ,
b0 +
0*
b0 )
1(
b0 '
b0 &
b0 %
b0 $
b0 #
b0 "
b0 !
$end
#500
0(
#1000
b0 N
b111 ]
b110 U
1(
#1500
0(
#2000
b110 U
b111 ]
1(
#2500
0(
#3000
b111 ]
b110 U
1(
#3500
0(
#4000
b110 U
b111 ]
1(
#4500
0(
#5000
b111 ]
b110 U
1(
#5500
0(
#6000
b110 U
b111 ]
1(
#6500
0(
#7000
b111 ]
b110 U
1(
#7500
0(
#8000
b110 U
b111 ]
1(
#8500
0(
#9000
b111 ]
b110 U
1(
#9500
0(
#10000
b110 U
b111 ]
1(
#10500
0(
#11000
b111 ]
b110 U
1(
#11500
0(
#12000
b110 U
b111 ]
1(
#12500
0(
#13000
b111 ]
b110 U
1(
#13500
0(
#14000
b110 U
b111 ]
1(
#14500
0(
#15000
0-
b111 ]
b110 U
1(
#15500
0(
#16000
b10000000 C
b111 ]
1(
#16500
0(
#17000
b111 ]
1(
#17500
0(
#18000
b111 ]
1(
#18500
0(
#19000
b111 ]
1(
#19500
0(
#20000
b111 ]
1(
#20500
0(
#21000
b111 ]
1(
#21500
0(
#22000
b111 ]
1(
#22500
0(
#23000
b111 ]
1(
#23500
0(
#24000
b111 ]
1(
#24500
0(
#25000
b111 ]
1(
#25500
0(
#26000
b11111111111111111111111110000000 @
b11111111111111111111111110000000 K
b11110000000 A
b100000000000000 !
b1111111110000000 [
b1 5
b1 Y
1Q
1W
b111 ]
b1 .
b1 ,
b11110000000 )
b11110000000 6
b11110000000 P
b11110000000 V
1(
#26500
0(
#27000
b1111111111100000000000000 !
b10000000 )
b10000000 6
b10000000 P
b10000000 V
b100000000000000 "
b111 ]
b110 U
1(
#27500
0(
#28000
b10000000 @
b10000000 K
b100000000000000 #
b1111111111100000000000000 "
b10000000 A
b110 U
b111 ]
1(
#28500
0(
#29000
b100000000000000 !
b11110000000 )
b11110000000 6
b11110000000 P
b11110000000 V
b100000000000000 $
b1111111111100000000000000 #
b111 ]
b110 U
1(
#29500
0(
#30000
b100000000 !
b1111111111111111100000000 #
b1111111111111110 [
b11111110 X
b11111110 7
b1111111110 3
b1111110 2
b1111110 <
b1111110 R
b11111111111111111111111110000000 @
b11111111111111111111111110000000 K
b11111100000 T
b100000000 %
b1111111111111111100000000 $
b100000000 "
b11110000000 A
b110 U
b111 ]
1(
#30500
0(
#31000
b11111100000000 !
b11111100000000 "
b1111111111100000100000000 $
b1111111110000010 [
b10000010 X
b10000010 7
b1110000010 3
b10 2
b10 <
b10 R
b11111110 C
b1111110 B
b11111100000000 &
b1111111111100000100000000 %
b11111100000000 #
b100000 T
b111 ]
b110 U
1(
#31500
0(
#32000
b1111111111111111110000000 !
b1111111111111111110000000 "
b1111111111111111110000000 #
b10000000 %
b1 [
b1 X
b1 7
b1 3
b10000001 2
b10000001 <
b10000001 R
b100000011111 T
b1111111111111111110000000 '
b10000000 &
b1111111111111111110000000 $
b10000001000000001000000001000000001 4
b10000001000000001000000001000000001 S
b10000001000000001000000001000000001 Z
b10000010 C
b10 B
b110 U
b111 ]
1(
#32500
0(
#33000
b10000000 )
b10000000 6
b10000000 P
b10000000 V
b110000000 /
b11111010000000 !
b1111111111100000110000000 "
b1111111111100000110000000 #
b1111111111100000110000000 $
b11111010000000 &
b1111101 [
b1111101 X
b1111101 7
b1111101 3
b11111101 2
b11111101 <
b11111101 R
b1 C
b10000001 B
b111111111000000000111111111010000000000000000000000000000000000 4
b111111111000000000111111111010000000000000000000000000000000000 S
b111111111000000000111111111010000000000000000000000000000000000 Z
b11111010000000 '
b1111111111100000110000000 %
b111111011111 T
b111 ]
b110 U
1(
#33500
0(
#34000
b11110000000 )
b11110000000 6
b11110000000 P
b11110000000 V
b110000000 /
b1111111111100000110000000 !
b1111111111100000110000000 #
b1111111111100000110000000 $
b1111111111100000110000000 %
b11111010000000 '
b1111101 [
b1111101 X
b1111101 7
b1111101 3
b11111101 2
b11111101 <
b11111101 R
b111111011111 T
b10000000 @
b10000000 K
b1111111111100000110000000 &
b11111010000000 "
b111111111010000000111111111111111111111111111 4
b111111111010000000111111111111111111111111111 S
b111111111010000000111111111111111111111111111 Z
b1111101 C
b11111101 B
b10000000 A
b110 U
b111 ]
1(
#34500
0(
#35000
b10000000 )
b10000000 6
b10000000 P
b10000000 V
b11110110000000 !
b1111111111100001010000000 $
b1111111111100001010000000 %
b1111111111100001010000000 &
b1111011 [
b1111011 X
b1111011 7
b11111111111111111111111110000000 @
b11111111111111111111111110000000 K
b1111011 3
b11111011 2
b11111011 <
b11111011 R
b11110000000 A
b1000000001111111110001111111000000000111111111000000000 4
b1000000001111111110001111111000000000111111111000000000 S
b1000000001111111110001111111000000000111111111000000000 Z
b1 \
b1111111111100001010000000 '
b11110110000000 #
b1111111111100001010000000 "
b111110111111 T
b111 ]
b110 U
1(
#35500
0(
#36000
b10000000 !
b1111111111111111110000000 %
b1111111111111111110000000 &
b1111111111111111110000000 '
b1 [
b1 X
b1 7
b1 3
b10000001 2
b10000001 <
b10000001 R
b10000000 @
b10000000 K
b100000011111 T
b10000000 $
b1111111111111111110000000 #
b10000000 "
b0 \
b111111101001111111000000000000000000000000000 4
b111111101001111111000000000000000000000000000 S
b111111101001111111000000000000000000000000000 Z
b1111011 C
b11111011 B
b10000000 A
b110 U
b111 ]
1(
#36500
0(
#37000
b11111010000000 !
b11111010000000 "
b1111111111100000110000000 &
b1111111111100000110000000 '
b1111101 [
b1111101 X
b1111101 7
b1111101 3
b11111101 2
b11111101 <
b11111101 R
b1 C
b10000001 B
b111111100001111110111111111111111111000000001 4
b111111100001111110111111111111111111000000001 S
b111111100001111110111111111111111111000000001 Z
b11111010000000 %
b1111111111100000110000000 $
b11111010000000 #
b111111011111 T
b111 ]
b110 U
1(
#37500
0(
#38000
b11110000000 )
b11110000000 6
b11110000000 P
b11110000000 V
b1111111111111111110000000 !
b10000000 "
b10000000 #
b1111111111111111110000000 '
b1 [
b1 X
b1 7
b1 3
b10000001 2
b10000001 <
b10000001 R
b100000011110 T
b10000000 &
b1111111111111111110000000 %
b10000000 $
b111111100001111101111111111111111111000000000 4
b111111100001111101111111111111111111000000000 S
b111111100001111101111111111111111111000000000 Z
b1111101 C
b11111101 B
b110 U
b111 ]
1(
#38500
0(
#39000
b1111111111111111110000000 !
b10000000 #
b10000000 $
b1 [
b1 X
b1 7
b11111111111111111111111110000000 @
b11111111111111111111111110000000 K
b1 3
b10000001 2
b10000001 <
b10000001 R
b1 C
b10000001 B
b11110000000 A
b111111111111111111111111101001111101111111111111111111000000001 4
b111111111111111111111111101001111101111111111111111111000000001 S
b111111111111111111111111101001111101111111111111111111000000001 Z
b111111111 \
b10000000 '
b1111111111111111110000000 &
b10000000 %
b1111111111111111110000000 "
b100000011011 T
b111 ]
b110 U
1(
#39500
0(
#40000
b110000000 /
b1111111111111111110000000 !
b1111111111111111110000000 "
b10000000 $
b10000000 %
b1 [
b1 X
b1 7
b1 3
b10000001 2
b10000001 <
b10000001 R
b100000011110 T
b1111111111111111110000000 '
b10000000 &
b1111111111111111110000000 #
b111111111111111101001111100111111111111111111000000000 4
b111111111111111101001111100111111111111111111000000000 S
b111111111111111101001111100111111111111111111000000000 Z
b110 U
b111 ]
1(
#40500
0(
#41000
b10000000 )
b10000000 6
b10000000 P
b10000000 V
b110000000 /
b11111010000000 !
b1111111111100000110000000 "
b1111111111100000110000000 #
b11111010000000 %
b11111010000000 &
b1111101 [
b1111101 X
b1111101 7
b1111101 3
b11111101 2
b11111101 <
b11111101 R
b111111111111111111111111101001111100000000000111111111000000001 4
b111111111111111111111111101001111100000000000111111111000000001 S
b111111111111111111111111101001111100000000000111111111000000001 Z
b11111010000000 '
b1111111111100000110000000 $
b111111011111 T
b111 ]
b110 U
1(
#41500
0(
#42000
b10000000 /
b11110000000 )
b11110000000 6
b11110000000 P
b11110000000 V
b110000000 !
b110000000 #
b110000000 $
b1111111111111111010000000 &
b1111111111111111010000000 '
b1111111111111101 [
b11111101 X
b11111101 7
b1111111101 3
b101111101 2
b101111101 <
b101111101 R
b10000000 @
b10000000 K
b1011111011111 T
b110000000 %
b1111111111111111010000000 "
b111111111111111101001111100000000000000000000000000001 4
b111111111111111101001111100000000000000000000000000001 S
b111111111111111101001111100000000000000000000000000001 Z
b1111101 C
b11111101 B
b10000000 A
b110 U
b111 ]
1(
#42500
0(
#43000
b10000000 )
b10000000 6
b10000000 P
b10000000 V
b110000000 /
b1111111111111111100000000 !
b100000000 $
b100000000 %
b1111111111111111100000000 '
b1111111111111110 [
b11111110 X
b11111110 7
b11111111111111111111111110000000 @
b11111111111111111111111110000000 K
b1111111110 3
b1111110 2
b1111110 <
b1111110 R
b11111101 C
b101111101 B
b11110000000 A
b111111110001111100000000000000000000000000010 4
b111111110001111100000000000000000000000000010 S
b111111110001111100000000000000000000000000010 Z
b0 \
b100000000 &
b1111111111111111100000000 #
b100000000 "
b11111100001 T
b111 ]
b110 U
1(
#43500
0(
#44000
b11110000000 )
b11110000000 6
b11110000000 P
b11110000000 V
b1111111111111111110000000 !
b1111111111111111110000000 %
b1111111111111111110000000 &
b1 [
b1 X
b1 7
b1 3
b10000001 2
b10000001 <
b10000001 R
b10000000 @
b10000000 K
b100000011110 T
b1111111111111111110000000 '
b10000000 $
b1111111111111111110000000 #
b10000000 "
b111111110001111011000000000000000000000000010 4
b111111110001111011000000000000000000000000010 S
b111111110001111011000000000000000000000000010 Z
b11111110 C
b1111110 B
b10000000 A
b110 U
b111 ]
1(
#44500
0(
#45000
b10000000 /
b110000000 !
b110000000 &
b110000000 '
b1111111111111101 [
b11111101 X
b11111101 7
b11111111111111111111111110000000 @
b11111111111111111111111110000000 K
b1111111101 3
b101111101 2
b101111101 <
b101111101 R
b1 C
b10000001 B
b11110000000 A
b111111110001111011111111111000000000000000010 4
b111111110001111011111111111000000000000000010 S
b111111110001111011111111111000000000000000010 Z
b1111111111111111010000000 %
b110000000 $
b1111111111111111010000000 #
b110000000 "
b1011111011111 T
b111 ]
b110 U
1(
#45500
0(
#46000
b110000000 /
b10000000 )
b10000000 6
b10000000 P
b10000000 V
b10000000 !
b1111111111111111110000000 "
b1111111111111111110000000 '
b1 [
b1 X
b1 7
b1 3
b10000001 2
b10000001 <
b10000001 R
b100000011110 T
b10000000 &
b1111111111111111110000000 %
b10000000 $
b1111111111111111110000000 #
b111111110001111011111111111111111111000000010 4
b111111110001111011111111111111111111000000010 S
b111111110001111011111111111111111111000000010 Z
b11111101 C
b101111101 B
b110 U
b111 ]
1(
#46500
0(
#47000
b1111111111111111010000000 !
b110000000 #
b1111111111111101 [
b11111101 X
b11111101 7
b10000000 @
b10000000 K
b1111111101 3
b1111101 2
b1111101 <
b1111101 R
b1 C
b10000001 B
b10000000 A
b111111110001111011111111111111111111000000011 4
b111111110001111011111111111111111111000000011 S
b111111110001111011111111111111111111000000011 Z
b1111111111111111010000000 '
b110000000 &
b1111111111111111010000000 %
b110000000 $
b1111111111111111010000000 "
b11111011110 T
b111 ]
b110 U
1(
#47500
0(
#48000
b11111011111 T
b110000000 '
b1111111111111111010000000 &
b110000000 %
b1111111111111111010000000 #
b11111101 C
b1111101 B
b110 U
b111 ]
1(
#48500
0(
#49000
b11110000000 )
b11110000000 6
b11110000000 P
b11110000000 V
b1111111111111111110000000 !
b10000000 "
b10000000 #
b1111111111111111110000000 %
b1 [
b1 X
b1 7
b1 3
b10000001 2
b10000001 <
b10000001 R
b10000000 '
b1111111111111111110000000 &
b10000000 $
b100000011011 T
b111 ]
b110 U
1(
#49500
0(
#50000
b11111111111111111111111110000000 @
b11111111111111111111111110000000 K
b1111111111111111110000000 '
b10000000 %
b1111111111111111110000000 "
b1 C
b10000001 B
b11110000000 A
b110 U
b111 ]
1(
#50500
0(
#51000
b10000000 )
b10000000 6
b10000000 P
b10000000 V
b110000000 /
b10000000 !
b1111111111111111110000000 "
b10000000 $
b10000000 %
b1111111111111111110000000 '
b1 [
b1 X
b1 7
b1 3
b10000001 2
b10000001 <
b10000001 R
b10000000 &
b1111111111111111110000000 #
b100000011101 T
b111 ]
b110 U
1(
#51500
0(
#52000
b11110000000 )
b11110000000 6
b11110000000 P
b11110000000 V
b1111111111100000110000000 !
b1111111111100000110000000 #
b11111010000000 %
b11111010000000 &
b1111101 [
b1111101 X
b1111101 7
b1111101 3
b11111101 2
b11111101 <
b11111101 R
b10000000 @
b10000000 K
b111111011110 T
b11111010000000 '
b1111111111100000110000000 $
b11111010000000 "
b10000000 A
b110 U
b111 ]
1(
#52500
0(
#53000
b10000000 /
b110000000 !
b110000000 $
b1111111111111111010000000 &
b1111111111111111010000000 '
b1111111111111101 [
b11111101 X
b11111101 7
b11111111111111111111111110000000 @
b11111111111111111111111110000000 K
b1000000000111111110001111011111111111111111111000000011 4
b1000000000111111110001111011111111111111111111000000011 S
b1000000000111111110001111011111111111111111111000000011 Z
b1111111101 3
b101111101 2
b101111101 <
b101111101 R
b1111101 C
b11111101 B
b11110000000 A
b110000000 %
b1111111111111111010000000 #
b110000000 "
b1011111011111 T
b111 ]
b110 U
1(
#53500
0(
#54000
b10000000 )
b10000000 6
b10000000 P
b10000000 V
b110000000 /
b1111111111100000010000000 !
b11111110000000 "
b11111110000000 %
b1111111111100000010000000 '
b1111111110000001 [
b10000001 X
b10000001 7
b1110000001 3
b1 2
b1 <
b1 R
b11110 T
b11111110000000 &
b1111111111100000010000000 $
b11111110000000 #
b1 \
b1000000001111111111001111011111111111111111111000000011 4
b1000000001111111111001111011111111111111111111000000011 S
b1000000001111111111001111011111111111111111111000000011 Z
b11111101 C
b101111101 B
b110 U
b111 ]
1(
#54500
0(
#55000
b11110000000 )
b11110000000 6
b11110000000 P
b11110000000 V
b1111111111100000110000000 !
b1111111111100000110000000 #
b1111111111100000110000000 &
b1111101 [
b1111101 X
b1111101 7
b10000000 @
b10000000 K
b1111101 3
b11111101 2
b11111101 <
b11111101 R
b10000001 C
b1 B
b10000000 A
b111111111001111010111111111111111111000000011 4
b111111111001111010111111111111111111000000011 S
b111111111001111010111111111111111111000000011 Z
b0 \
b1111111111100000110000000 '
b11111010000000 %
b1111111111100000110000000 $
b11111010000000 "
b111111011110 T
b111 ]
b110 U
1(
#55500
0(
#56000
b10000000 )
b10000000 6
b10000000 P
b10000000 V
b110000000 /
b11111100000000 !
b1111111111100000100000000 $
b1111111111100000100000000 '
b1111110 [
b1111110 X
b1111110 7
b1111110 3
b11111110 2
b11111110 <
b11111110 R
b11111111111111111111111110000000 @
b11111111111111111111111110000000 K
b111111100000 T
b11111100000000 &
b1111111111100000100000000 %
b11111100000000 #
b1111111111100000100000000 "
b1 \
b111111111000000001000000000001111010111111110111111110000000011 4
b111111111000000001000000000001111010111111110111111110000000011 S
b111111111000000001000000000001111010111111110111111110000000011 Z
b1111101 C
b11111101 B
b11110000000 A
b110 U
b111 ]
1(
#56500
0(
#57000
b10000000 /
b11110000000 )
b11110000000 6
b11110000000 P
b11110000000 V
b11111110000000 !
b11111110000000 %
b1111111110000001 [
b10000001 X
b10000001 7
b10000000 @
b10000000 K
b1110000001 3
b100000001 2
b100000001 <
b100000001 R
b1111110 C
b11111110 B
b10000000 A
b111111110000000001000000001001111001111111110111111111000000011 4
b111111110000000001000000001001111001111111110111111111000000011 S
b111111110000000001000000001001111001111111110111111111000000011 Z
b1111111111100000010000000 '
b11111110000000 &
b1111111111100000010000000 $
b11111110000000 #
b1111111111100000010000000 "
b1000000011100 T
b111 ]
b110 U
1(
#57500
0(
#58000
b10000000 )
b10000000 6
b10000000 P
b10000000 V
b110000000 /
b1111111111111111010000000 !
b110000000 &
b1111111111111101 [
b11111101 X
b11111101 7
b1111111101 3
b1111101 2
b1111101 <
b1111101 R
b11111111111111111111111110000000 @
b11111111111111111111111110000000 K
b11111011111 T
b110000000 '
b1111111111111111010000000 %
b110000000 $
b1111111111111111010000000 #
b110000000 "
b111111101000000001000000000001111000111111111111111111000000010 4
b111111101000000001000000000001111000111111111111111111000000010 S
b111111101000000001000000000001111000111111111111111111000000010 Z
b10000001 C
b100000001 B
b11110000000 A
b110 U
b111 ]
1(
#58500
0(
#59000
b10000000 /
b11110000000 )
b11110000000 6
b11110000000 P
b11110000000 V
b11111110000000 !
b11111110000000 '
b1111111110000001 [
b10000001 X
b10000001 7
b10000000 @
b10000000 K
b1110000001 3
b100000001 2
b100000001 <
b100000001 R
b11111101 C
b1111101 B
b10000000 A
b111111101000000010000000001001110111111111110000000000000000010 4
b111111101000000010000000001001110111111111110000000000000000010 S
b111111101000000010000000001001110111111111110000000000000000010 Z
b10 \
b1111111111100000010000000 &
b11111110000000 %
b1111111111100000010000000 $
b11111110000000 #
b1111111111100000010000000 "
b1000000011011 T
b111 ]
b110 U
1(
#59500
0(
#60000
b110000000 !
b1111111111111101 [
b11111101 X
b11111101 7
b1111111101 3
b101111101 2
b101111101 <
b101111101 R
b11111111111111111111111110000000 @
b11111111111111111111111110000000 K
b1011111011111 T
b1111111111111111010000000 '
b110000000 &
b1111111111111111010000000 %
b110000000 $
b1111111111111111010000000 #
b110000000 "
b11 \
b111111110000000011000000001001110110111111111000000001000000001 4
b111111110000000011000000001001110110111111111000000001000000001 S
b111111110000000011000000001001110110111111111000000001000000001 Z
b10000001 C
b100000001 B
b11110000000 A
b110 U
b111 ]
1(
#60500
0(
#61000
b10000000 )
b10000000 6
b10000000 P
b10000000 V
b110000000 /
b1111111111100000010000000 !
b11111110000000 "
b1111111110000001 [
b10000001 X
b10000001 7
b1110000001 3
b1 2
b1 <
b1 R
b11111101 C
b101111101 B
b111111110000000010000000010001110110000000000000000000000000000 4
b111111110000000010000000010001110110000000000000000000000000000 S
b111111110000000010000000010001110110000000000000000000000000000 Z
b10 \
b11111110000000 '
b1111111111100000010000000 &
b11111110000000 %
b1111111111100000010000000 $
b11111110000000 #
b11100 T
b111 ]
b110 U
1(
#61500
0(
#62000
b11111100000000 !
b1111111111100000100000000 #
b1111110 [
b1111110 X
b1111110 7
b1111110 3
b11111110 2
b11111110 <
b11111110 R
b10000000 @
b10000000 K
b111111100000 T
b11111100000000 '
b1111111111100000100000000 &
b11111100000000 %
b1111111111100000100000000 $
b11111100000000 "
b111111111000000010000000010001110101000000000111111111000000001 4
b111111111000000010000000010001110101000000000111111111000000001 S
b111111111000000010000000010001110101000000000111111111000000001 Z
b10000001 C
b1 B
b10000000 A
b110 U
b111 ]
1(
#62500
0(
#63000
b1111111111111111100000000 !
b1111111111111111100000000 "
b100000000 $
b1111111111111110 [
b11111110 X
b11111110 7
b1111111110 3
b1111110 2
b1111110 <
b1111110 R
b1111110 C
b11111110 B
b1000000011001110101000000001000000000000000010 4
b1000000011001110101000000001000000000000000010 S
b1000000011001110101000000001000000000000000010 Z
b1 \
b100000000 '
b1111111111111111100000000 &
b100000000 %
b1111111111111111100000000 #
b11111100000 T
b111 ]
b110 U
1(
#63500
0(
#64000
b11110000000 )
b11110000000 6
b11110000000 P
b11110000000 V
b1111111111111111110000000 !
b10000000 "
b10000000 #
b1111111111111111110000000 %
b1 [
b1 X
b1 7
b1 3
b10000001 2
b10000001 <
b10000001 R
b100000011001 T
b10000000 '
b1111111111111111110000000 &
b10000000 $
b0 \
b11001110100000000001111111111000000010 4
b11001110100000000001111111111000000010 S
b11001110100000000001111111111000000010 Z
b11111110 C
b1111110 B
b110 U
b111 ]
1(
#64500
0(
#65000
b10000000 )
b10000000 6
b10000000 P
b10000000 V
b110000000 /
b10000000 !
b10000000 #
b10000000 $
b1111111111111111110000000 &
b1 [
b1 X
b1 7
b11111111111111111111111110000000 @
b11111111111111111111111110000000 K
b1 3
b10000001 2
b10000001 <
b10000001 R
b1 C
b10000001 B
b11110000000 A
b100001110011000000010111111111000000011 4
b100001110011000000010111111111000000011 S
b100001110011000000010111111111000000011 Z
b1111111111111111110000000 '
b10000000 %
b1111111111111111110000000 "
b100000011100 T
b111 ]
b110 U
1(
#65500
0(
#66000
b1111111111100000010000000 !
b1111111111100000010000000 $
b1111111111100000010000000 %
b11111110000000 '
b1111111110000001 [
b10000001 X
b10000001 7
b1110000001 3
b1 2
b1 <
b1 R
b10000000 @
b10000000 K
b11011 T
b1111111111100000010000000 &
b11111110000000 #
b1111111111100000010000000 "
b11001110011000000001000000000000000011 4
b11001110011000000001000000000000000011 S
b11001110011000000001000000000000000011 Z
b10000000 A
b110 U
b111 ]
1(
#66500
0(
#67000
b1111111111111111100000000 !
b1111111111111111100000000 "
b1111111111111111100000000 %
b1111111111111111100000000 &
b1111111111111110 [
b11111110 X
b11111110 7
b1111111110 3
b1111110 2
b1111110 <
b1111110 R
b10000001 C
b1 B
b1000000000000000100001110011000000001000000001000000010 4
b1000000000000000100001110011000000001000000001000000010 S
b1000000000000000100001110011000000001000000001000000010 Z
b1111111111111111100000000 '
b100000000 $
b1111111111111111100000000 #
b11111100010 T
b111 ]
b110 U
1(
#67500
0(
#68000
b10000000 /
b11110000000 )
b11110000000 6
b11110000000 P
b11110000000 V
b11111110000000 !
b1111111111100000010000000 "
b1111111111100000010000000 #
b1111111111100000010000000 &
b1111111111100000010000000 '
b1111111110000001 [
b10000001 X
b10000001 7
b1110000001 3
b100000001 2
b100000001 <
b100000001 R
b1000000011001 T
b11111110000000 %
b1111111111100000010000000 $
b111111111 \
b1111111111000000011001110011000000001000000001000000011 4
b1111111111000000011001110011000000001000000001000000011 S
b1111111111000000011001110011000000001000000001000000011 Z
b11111110 C
b1111110 B
b110 U
b111 ]
1(
#68500
0(
#69000
b11111111111111111111111110000000 @
b11111111111111111111111110000000 K
b10000001 C
b100000001 B
b11110000000 A
b111111111000000010001110010000000001000000001000000011 4
b111111111000000010001110010000000001000000001000000011 S
b111111111000000010001110010000000001000000001000000011 Z
b11111110000000 &
b1111111111100000010000000 %
b11111110000000 "
b1000000011011 T
b111 ]
b110 U
1(
#69500
0(
#70000
b110000000 /
b1111111111111111110000000 !
b1111111111111111110000000 "
b10000000 $
b10000000 %
b1 [
b1 X
b1 7
b1 3
b10000001 2
b10000001 <
b10000001 R
b100000011001 T
b1111111111111111110000000 '
b10000000 &
b1111111111111111110000000 #
b111111110 \
b111111111111111110000000011001110010000000010000000001000000011 4
b111111111111111110000000011001110010000000010000000001000000011 S
b111111111111111110000000011001110010000000010000000001000000011 Z
b110 U
b111 ]
1(
#70500
0(
#71000
b10000000 )
b10000000 6
b10000000 P
b10000000 V
b1111111111111111100000000 !
b100000000 "
b100000000 #
b1111111111111111100000000 %
b1111111111111111100000000 &
b1111111111111110 [
b11111110 X
b11111110 7
b1111111110 3
b1111110 2
b1111110 <
b1111110 R
b1 C
b10000001 B
b111111111111111111000000010001110001000000010000000000000000011 4
b111111111111111111000000010001110001000000010000000000000000011 S
b111111111111111111000000010001110001000000010000000000000000011 Z
b111111111 \
b1111111111111111100000000 '
b100000000 $
b11111100010 T
b111 ]
b110 U
1(
#71500
0(
#72000
b1111111111100000100000000 #
b1111111111100000100000000 $
b11111100000000 &
b11111100000000 '
b1111110 [
b1111110 X
b1111110 7
b1111110 3
b11111110 2
b11111110 <
b11111110 R
b1111111111100000100000000 !
b11110000000 )
b11110000000 6
b11110000000 P
b11110000000 V
b10000000 @
b10000000 K
b111111100000 T
b1111111111100000100000000 %
b11111100000000 "
b111111111111111111000000011001110000000000001111111111000000010 4
b111111111111111111000000011001110000000000001111111111000000010 S
b111111111111111111000000011001110000000000001111111111000000010 Z
b11111110 C
b1111110 B
b10000000 A
b110 U
b111 ]
1(
#72500
0(
